%!PS-Adobe-3.0 EPSF-3.0
%%Creator: (MATLAB, The Mathworks, Inc. Version 9.6.0.1335978 \(R2019a\) Update 8. Operating System: Mac OS X)
%%Title: /Users/lengjiaqi/quantum-esc-saddle/type1.eps
%%CreationDate: 2020-05-26T22:25:45
%%Pages: (atend)
%%BoundingBox: 0 0 560 420
%%LanguageLevel: 3
%%EndComments
%%BeginProlog
%%BeginResource: procset (Apache XML Graphics Std ProcSet) 1.2 0
%%Version: 1.2 0
%%Copyright: (Copyright 2001-2003,2010 The Apache Software Foundation. License terms: http://www.apache.org/licenses/LICENSE-2.0)
/bd{bind def}bind def
/ld{load def}bd
/GR/grestore ld
/GS/gsave ld
/RM/rmoveto ld
/C/curveto ld
/t/show ld
/L/lineto ld
/ML/setmiterlimit ld
/CT/concat ld
/f/fill ld
/N/newpath ld
/S/stroke ld
/CC/setcmykcolor ld
/A/ashow ld
/cp/closepath ld
/RC/setrgbcolor ld
/LJ/setlinejoin ld
/GC/setgray ld
/LW/setlinewidth ld
/M/moveto ld
/re {4 2 roll M
1 index 0 rlineto
0 exch rlineto
neg 0 rlineto
cp } bd
/_ctm matrix def
/_tm matrix def
/BT { _ctm currentmatrix pop matrix _tm copy pop 0 0 moveto } bd
/ET { _ctm setmatrix } bd
/iTm { _ctm setmatrix _tm concat } bd
/Tm { _tm astore pop iTm 0 0 moveto } bd
/ux 0.0 def
/uy 0.0 def
/F {
  /Tp exch def
  /Tf exch def
  Tf findfont Tp scalefont setfont
  /cf Tf def  /cs Tp def
} bd
/ULS {currentpoint /uy exch def /ux exch def} bd
/ULE {
  /Tcx currentpoint pop def
  gsave
  newpath
  cf findfont cs scalefont dup
  /FontMatrix get 0 get /Ts exch def /FontInfo get dup
  /UnderlinePosition get Ts mul /To exch def
  /UnderlineThickness get Ts mul /Tt exch def
  ux uy To add moveto  Tcx uy To add lineto
  Tt setlinewidth stroke
  grestore
} bd
/OLE {
  /Tcx currentpoint pop def
  gsave
  newpath
  cf findfont cs scalefont dup
  /FontMatrix get 0 get /Ts exch def /FontInfo get dup
  /UnderlinePosition get Ts mul /To exch def
  /UnderlineThickness get Ts mul /Tt exch def
  ux uy To add cs add moveto Tcx uy To add cs add lineto
  Tt setlinewidth stroke
  grestore
} bd
/SOE {
  /Tcx currentpoint pop def
  gsave
  newpath
  cf findfont cs scalefont dup
  /FontMatrix get 0 get /Ts exch def /FontInfo get dup
  /UnderlinePosition get Ts mul /To exch def
  /UnderlineThickness get Ts mul /Tt exch def
  ux uy To add cs 10 mul 26 idiv add moveto Tcx uy To add cs 10 mul 26 idiv add lineto
  Tt setlinewidth stroke
  grestore
} bd
/QT {
/Y22 exch store
/X22 exch store
/Y21 exch store
/X21 exch store
currentpoint
/Y21 load 2 mul add 3 div exch
/X21 load 2 mul add 3 div exch
/X21 load 2 mul /X22 load add 3 div
/Y21 load 2 mul /Y22 load add 3 div
/X22 load /Y22 load curveto
} bd
/SSPD {
dup length /d exch dict def
{
/v exch def
/k exch def
currentpagedevice k known {
/cpdv currentpagedevice k get def
v cpdv ne {
/upd false def
/nullv v type /nulltype eq def
/nullcpdv cpdv type /nulltype eq def
nullv nullcpdv or
{
/upd true def
} {
/sametype v type cpdv type eq def
sametype {
v type /arraytype eq {
/vlen v length def
/cpdvlen cpdv length def
vlen cpdvlen eq {
0 1 vlen 1 sub {
/i exch def
/obj v i get def
/cpdobj cpdv i get def
obj cpdobj ne {
/upd true def
exit
} if
} for
} {
/upd true def
} ifelse
} {
v type /dicttype eq {
v {
/dv exch def
/dk exch def
/cpddv cpdv dk get def
dv cpddv ne {
/upd true def
exit
} if
} forall
} {
/upd true def
} ifelse
} ifelse
} if
} ifelse
upd true eq {
d k v put
} if
} if
} if
} forall
d length 0 gt {
d setpagedevice
} if
} bd
/RE { % /NewFontName [NewEncodingArray] /FontName RE -
  findfont dup length dict begin
  {
    1 index /FID ne
    {def} {pop pop} ifelse
  } forall
  /Encoding exch def
  /FontName 1 index def
  currentdict definefont pop
  end
} bind def
%%EndResource
%%BeginResource: procset (Apache XML Graphics EPS ProcSet) 1.0 0
%%Version: 1.0 0
%%Copyright: (Copyright 2002-2003 The Apache Software Foundation. License terms: http://www.apache.org/licenses/LICENSE-2.0)
/BeginEPSF { %def
/b4_Inc_state save def         % Save state for cleanup
/dict_count countdictstack def % Count objects on dict stack
/op_count count 1 sub def      % Count objects on operand stack
userdict begin                 % Push userdict on dict stack
/showpage { } def              % Redefine showpage, { } = null proc
0 setgray 0 setlinecap         % Prepare graphics state
1 setlinewidth 0 setlinejoin
10 setmiterlimit [ ] 0 setdash newpath
/languagelevel where           % If level not equal to 1 then
{pop languagelevel             % set strokeadjust and
1 ne                           % overprint to their defaults.
{false setstrokeadjust false setoverprint
} if
} if
} bd
/EndEPSF { %def
count op_count sub {pop} repeat            % Clean up stacks
countdictstack dict_count sub {end} repeat
b4_Inc_state restore
} bd
%%EndResource
%FOPBeginFontDict
%%IncludeResource: font Courier-Oblique
%%IncludeResource: font Courier-BoldOblique
%%IncludeResource: font Courier-Bold
%%IncludeResource: font ZapfDingbats
%%IncludeResource: font Symbol
%%IncludeResource: font Helvetica
%%IncludeResource: font Helvetica-Oblique
%%IncludeResource: font Helvetica-Bold
%%IncludeResource: font Helvetica-BoldOblique
%%IncludeResource: font Times-Roman
%%IncludeResource: font Times-Italic
%%IncludeResource: font Times-Bold
%%IncludeResource: font Times-BoldItalic
%%IncludeResource: font Courier
%FOPEndFontDict
%%BeginResource: encoding WinAnsiEncoding
/WinAnsiEncoding [
/.notdef /.notdef /.notdef /.notdef /.notdef
/.notdef /.notdef /.notdef /.notdef /.notdef
/.notdef /.notdef /.notdef /.notdef /.notdef
/.notdef /.notdef /.notdef /.notdef /.notdef
/.notdef /.notdef /.notdef /.notdef /.notdef
/.notdef /.notdef /.notdef /.notdef /.notdef
/.notdef /.notdef /space /exclam /quotedbl
/numbersign /dollar /percent /ampersand /quotesingle
/parenleft /parenright /asterisk /plus /comma
/hyphen /period /slash /zero /one
/two /three /four /five /six
/seven /eight /nine /colon /semicolon
/less /equal /greater /question /at
/A /B /C /D /E
/F /G /H /I /J
/K /L /M /N /O
/P /Q /R /S /T
/U /V /W /X /Y
/Z /bracketleft /backslash /bracketright /asciicircum
/underscore /quoteleft /a /b /c
/d /e /f /g /h
/i /j /k /l /m
/n /o /p /q /r
/s /t /u /v /w
/x /y /z /braceleft /bar
/braceright /asciitilde /bullet /Euro /bullet
/quotesinglbase /florin /quotedblbase /ellipsis /dagger
/daggerdbl /circumflex /perthousand /Scaron /guilsinglleft
/OE /bullet /Zcaron /bullet /bullet
/quoteleft /quoteright /quotedblleft /quotedblright /bullet
/endash /emdash /asciitilde /trademark /scaron
/guilsinglright /oe /bullet /zcaron /Ydieresis
/space /exclamdown /cent /sterling /currency
/yen /brokenbar /section /dieresis /copyright
/ordfeminine /guillemotleft /logicalnot /sfthyphen /registered
/macron /degree /plusminus /twosuperior /threesuperior
/acute /mu /paragraph /middot /cedilla
/onesuperior /ordmasculine /guillemotright /onequarter /onehalf
/threequarters /questiondown /Agrave /Aacute /Acircumflex
/Atilde /Adieresis /Aring /AE /Ccedilla
/Egrave /Eacute /Ecircumflex /Edieresis /Igrave
/Iacute /Icircumflex /Idieresis /Eth /Ntilde
/Ograve /Oacute /Ocircumflex /Otilde /Odieresis
/multiply /Oslash /Ugrave /Uacute /Ucircumflex
/Udieresis /Yacute /Thorn /germandbls /agrave
/aacute /acircumflex /atilde /adieresis /aring
/ae /ccedilla /egrave /eacute /ecircumflex
/edieresis /igrave /iacute /icircumflex /idieresis
/eth /ntilde /ograve /oacute /ocircumflex
/otilde /odieresis /divide /oslash /ugrave
/uacute /ucircumflex /udieresis /yacute /thorn
/ydieresis
] def
%%EndResource
%FOPBeginFontReencode
/Courier-Oblique findfont
dup length dict begin
  {1 index /FID ne {def} {pop pop} ifelse} forall
  /Encoding WinAnsiEncoding def
  currentdict
end
/Courier-Oblique exch definefont pop
/Courier-BoldOblique findfont
dup length dict begin
  {1 index /FID ne {def} {pop pop} ifelse} forall
  /Encoding WinAnsiEncoding def
  currentdict
end
/Courier-BoldOblique exch definefont pop
/Courier-Bold findfont
dup length dict begin
  {1 index /FID ne {def} {pop pop} ifelse} forall
  /Encoding WinAnsiEncoding def
  currentdict
end
/Courier-Bold exch definefont pop
/Helvetica findfont
dup length dict begin
  {1 index /FID ne {def} {pop pop} ifelse} forall
  /Encoding WinAnsiEncoding def
  currentdict
end
/Helvetica exch definefont pop
/Helvetica-Oblique findfont
dup length dict begin
  {1 index /FID ne {def} {pop pop} ifelse} forall
  /Encoding WinAnsiEncoding def
  currentdict
end
/Helvetica-Oblique exch definefont pop
/Helvetica-Bold findfont
dup length dict begin
  {1 index /FID ne {def} {pop pop} ifelse} forall
  /Encoding WinAnsiEncoding def
  currentdict
end
/Helvetica-Bold exch definefont pop
/Helvetica-BoldOblique findfont
dup length dict begin
  {1 index /FID ne {def} {pop pop} ifelse} forall
  /Encoding WinAnsiEncoding def
  currentdict
end
/Helvetica-BoldOblique exch definefont pop
/Times-Roman findfont
dup length dict begin
  {1 index /FID ne {def} {pop pop} ifelse} forall
  /Encoding WinAnsiEncoding def
  currentdict
end
/Times-Roman exch definefont pop
/Times-Italic findfont
dup length dict begin
  {1 index /FID ne {def} {pop pop} ifelse} forall
  /Encoding WinAnsiEncoding def
  currentdict
end
/Times-Italic exch definefont pop
/Times-Bold findfont
dup length dict begin
  {1 index /FID ne {def} {pop pop} ifelse} forall
  /Encoding WinAnsiEncoding def
  currentdict
end
/Times-Bold exch definefont pop
/Times-BoldItalic findfont
dup length dict begin
  {1 index /FID ne {def} {pop pop} ifelse} forall
  /Encoding WinAnsiEncoding def
  currentdict
end
/Times-BoldItalic exch definefont pop
/Courier findfont
dup length dict begin
  {1 index /FID ne {def} {pop pop} ifelse} forall
  /Encoding WinAnsiEncoding def
  currentdict
end
/Courier exch definefont pop
%FOPEndFontReencode
%%EndProlog
%%Page: 1 1
%%PageBoundingBox: 0 0 560 420
%%BeginPageSetup
[1 0 0 -1 0 420] CT
%%EndPageSetup
GS
1 GC
N
0 0 560 420 re
f
GR
GS
1 GC
N
0 0 560 420 re
f
GR
GS
1 GC
N
73 122 M
507 122 L
507 37 L
73 37 L
cp
f
GR
GS
[1 0 0 1 290.00027 35.35] CT
/Times-Bold 13.2 F
GS
[1 0 0 1 0 0] CT
-25 -3 moveto 
1 -1 scale
(dim = 10) t 
GR
GR
GS
0.149 GC
1 LJ
0.5 LW
N
507 122 M
73 122 L
S
GR
GS
0 0.447 0.741 RC
N
487.046 122 M
487.046 115.265 L
467.092 115.265 L
467.092 122 L
cp
399.747 122 M
399.747 116.078 L
379.793 116.078 L
379.793 122 L
cp
312.448 122 M
312.448 115.033 L
292.494 115.033 L
292.494 122 L
cp
225.149 122 M
225.149 111.085 L
205.195 111.085 L
205.195 122 L
cp
137.851 122 M
137.851 95.873 L
117.897 95.873 L
117.897 122 L
cp
f
GR
GS
10.0 ML
0.5 LW
N
487.046 122 M
487.046 115.265 L
467.092 115.265 L
467.092 122 L
cp
S
GR
GS
10.0 ML
0.5 LW
N
399.747 122 M
399.747 116.078 L
379.793 116.078 L
379.793 122 L
cp
S
GR
GS
10.0 ML
0.5 LW
N
312.448 122 M
312.448 115.033 L
292.494 115.033 L
292.494 122 L
cp
S
GR
GS
10.0 ML
0.5 LW
N
225.149 122 M
225.149 111.085 L
205.195 111.085 L
205.195 122 L
cp
S
GR
GS
10.0 ML
0.5 LW
N
137.851 122 M
137.851 95.873 L
117.897 95.873 L
117.897 122 L
cp
S
GR
GS
0.851 0.325 0.098 RC
N
462.103 122 M
462.103 120.955 L
442.149 120.955 L
442.149 122 L
cp
374.805 122 M
374.805 119.097 L
354.851 119.097 L
354.851 122 L
cp
287.506 122 M
287.506 113.291 L
267.552 113.291 L
267.552 122 L
cp
200.207 122 M
200.207 104.117 L
180.253 104.117 L
180.253 122 L
cp
112.908 122 M
112.908 37 L
92.954 37 L
92.954 122 L
cp
f
GR
GS
10.0 ML
0.5 LW
N
462.103 122 M
462.103 120.955 L
442.149 120.955 L
442.149 122 L
cp
S
GR
GS
10.0 ML
0.5 LW
N
374.805 122 M
374.805 119.097 L
354.851 119.097 L
354.851 122 L
cp
S
GR
GS
10.0 ML
0.5 LW
N
287.506 122 M
287.506 113.291 L
267.552 113.291 L
267.552 122 L
cp
S
GR
GS
10.0 ML
0.5 LW
N
200.207 122 M
200.207 104.117 L
180.253 104.117 L
180.253 122 L
cp
S
GR
GS
10.0 ML
0.5 LW
N
112.908 122 M
112.908 37 L
92.954 37 L
92.954 122 L
cp
S
GR
GS
0.149 GC
2 setlinecap
1 LJ
0.5 LW
N
507 122 M
73 122 L
S
GR
GS
0.149 GC
2 setlinecap
1 LJ
0.5 LW
N
507 37 M
73 37 L
S
GR
GS
0.149 GC
2 setlinecap
1 LJ
0.5 LW
N
464.598 122 M
464.598 117.66 L
S
GR
GS
0.149 GC
2 setlinecap
1 LJ
0.5 LW
N
377.299 122 M
377.299 117.66 L
S
GR
GS
0.149 GC
2 setlinecap
1 LJ
0.5 LW
N
290 122 M
290 117.66 L
S
GR
GS
0.149 GC
2 setlinecap
1 LJ
0.5 LW
N
202.701 122 M
202.701 117.66 L
S
GR
GS
0.149 GC
2 setlinecap
1 LJ
0.5 LW
N
115.402 122 M
115.402 117.66 L
S
GR
GS
0.149 GC
2 setlinecap
1 LJ
0.5 LW
N
464.598 37 M
464.598 41.34 L
S
GR
GS
0.149 GC
2 setlinecap
1 LJ
0.5 LW
N
377.299 37 M
377.299 41.34 L
S
GR
GS
0.149 GC
2 setlinecap
1 LJ
0.5 LW
N
290 37 M
290 41.34 L
S
GR
GS
0.149 GC
2 setlinecap
1 LJ
0.5 LW
N
202.701 37 M
202.701 41.34 L
S
GR
GS
0.149 GC
2 setlinecap
1 LJ
0.5 LW
N
115.402 37 M
115.402 41.34 L
S
GR
GS
[1 0 0 1 464.59769 126.4] CT
0.149 GC
/Times-Roman 12 F
GS
[1 0 0 1 0 0] CT
-31 11 moveto 
1 -1 scale
(\(-5e-3,-4e-3]) t 
GR
GR
GS
[1 0 0 1 377.29886 126.4] CT
0.149 GC
/Times-Roman 12 F
GS
[1 0 0 1 0 0] CT
-31 11 moveto 
1 -1 scale
(\(-4e-3,-3e-3]) t 
GR
GR
GS
[1 0 0 1 290 126.4] CT
0.149 GC
/Times-Roman 12 F
GS
[1 0 0 1 0 0] CT
-31 11 moveto 
1 -1 scale
(\(-3e-3,-2e-3]) t 
GR
GR
GS
[1 0 0 1 202.70116 126.4] CT
0.149 GC
/Times-Roman 12 F
GS
[1 0 0 1 0 0] CT
-31 11 moveto 
1 -1 scale
(\(-2e-3,-1e-3]) t 
GR
GR
GS
[1 0 0 1 115.40231 126.4] CT
0.149 GC
/Times-Roman 12 F
GS
[1 0 0 1 0 0] CT
-16.5 11 moveto 
1 -1 scale
(>-1e-3) t 
GR
GR
GS
0.149 GC
2 setlinecap
1 LJ
0.5 LW
N
73 122 M
73 37 L
S
GR
GS
0.149 GC
2 setlinecap
1 LJ
0.5 LW
N
507 122 M
507 37 L
S
GR
GS
0.149 GC
2 setlinecap
1 LJ
0.5 LW
N
73 122 M
77.34 122 L
S
GR
GS
0.149 GC
2 setlinecap
1 LJ
0.5 LW
N
73 98.776 M
77.34 98.776 L
S
GR
GS
0.149 GC
2 setlinecap
1 LJ
0.5 LW
N
73 75.552 M
77.34 75.552 L
S
GR
GS
0.149 GC
2 setlinecap
1 LJ
0.5 LW
N
73 52.328 M
77.34 52.328 L
S
GR
GS
0.149 GC
2 setlinecap
1 LJ
0.5 LW
N
507 122 M
502.66 122 L
S
GR
GS
0.149 GC
2 setlinecap
1 LJ
0.5 LW
N
507 98.776 M
502.66 98.776 L
S
GR
GS
0.149 GC
2 setlinecap
1 LJ
0.5 LW
N
507 75.552 M
502.66 75.552 L
S
GR
GS
0.149 GC
2 setlinecap
1 LJ
0.5 LW
N
507 52.328 M
502.66 52.328 L
S
GR
GS
[1 0 0 1 68.6 122] CT
0.149 GC
/Times-Roman 12 F
GS
[1 0 0 1 0 0] CT
-6 4 moveto 
1 -1 scale
(0) t 
GR
GR
GS
[1 0 0 1 68.6 98.77596] CT
0.149 GC
/Times-Roman 12 F
GS
[1 0 0 1 0 0] CT
-18 4 moveto 
1 -1 scale
(200) t 
GR
GR
GS
[1 0 0 1 68.6 75.55191] CT
0.149 GC
/Times-Roman 12 F
GS
[1 0 0 1 0 0] CT
-18 4 moveto 
1 -1 scale
(400) t 
GR
GR
GS
[1 0 0 1 68.6 52.32787] CT
0.149 GC
/Times-Roman 12 F
GS
[1 0 0 1 0 0] CT
-18 4 moveto 
1 -1 scale
(600) t 
GR
GR
GS
1 GC
N
499 71.5 M
499 42 L
402.5 42 L
402.5 71.5 L
cp
f
GR
GS
[1 0 0 1 439.5 50.25] CT
/Times-Roman 10.8 F
GS
[1 0 0 1 0 0] CT
0 3.5 moveto 
1 -1 scale
(QSimulation) t 
GR
GR
GS
0 0.447 0.741 RC
N
436.5 54.938 M
436.5 45.563 L
406.5 45.563 L
406.5 54.938 L
cp
f
GR
GS
10.0 ML
0.5 LW
N
406.5 54.938 M
406.5 45.563 L
436.5 45.563 L
436.5 54.938 L
cp
S
GR
GS
[1 0 0 1 439.5 63.25] CT
/Times-Roman 10.8 F
GS
[1 0 0 1 0 0] CT
0 3.5 moveto 
1 -1 scale
(PGD) t 
GR
GR
GS
0.851 0.325 0.098 RC
N
436.5 67.938 M
436.5 58.563 L
406.5 58.563 L
406.5 67.938 L
cp
f
GR
GS
10.0 ML
0.5 LW
N
406.5 67.938 M
406.5 58.563 L
436.5 58.563 L
436.5 67.938 L
cp
S
GR
GS
0.149 GC
10.0 ML
0.5 LW
N
402.5 71.5 M
402.5 42 L
499 42 L
499 71.5 L
cp
S
GR
GS
1 GC
N
73 248 M
507 248 L
507 163 L
73 163 L
cp
f
GR
GS
[1 0 0 1 290.00027 161.34999] CT
/Times-Bold 13.2 F
GS
[1 0 0 1 0 0] CT
-28 -3 moveto 
1 -1 scale
(dim = 100) t 
GR
GR
GS
0.149 GC
1 LJ
0.5 LW
N
507 248 M
73 248 L
S
GR
GS
0 0.447 0.741 RC
N
487.046 248 M
487.046 243.52 L
467.092 243.52 L
467.092 248 L
cp
399.747 248 M
399.747 242.931 L
379.793 242.931 L
379.793 248 L
cp
312.448 248 M
312.448 240.691 L
292.494 240.691 L
292.494 248 L
cp
225.149 248 M
225.149 239.865 L
205.195 239.865 L
205.195 248 L
cp
137.851 248 M
137.851 227.133 L
117.897 227.133 L
117.897 248 L
cp
f
GR
GS
10.0 ML
0.5 LW
N
487.046 248 M
487.046 243.52 L
467.092 243.52 L
467.092 248 L
cp
S
GR
GS
10.0 ML
0.5 LW
N
399.747 248 M
399.747 242.931 L
379.793 242.931 L
379.793 248 L
cp
S
GR
GS
10.0 ML
0.5 LW
N
312.448 248 M
312.448 240.691 L
292.494 240.691 L
292.494 248 L
cp
S
GR
GS
10.0 ML
0.5 LW
N
225.149 248 M
225.149 239.865 L
205.195 239.865 L
205.195 248 L
cp
S
GR
GS
10.0 ML
0.5 LW
N
137.851 248 M
137.851 227.133 L
117.897 227.133 L
117.897 248 L
cp
S
GR
GS
0.851 0.325 0.098 RC
N
462.103 248 M
462.103 246.114 L
442.149 246.114 L
442.149 248 L
cp
374.805 248 M
374.805 243.52 L
354.851 243.52 L
354.851 248 L
cp
287.506 248 M
287.506 241.162 L
267.552 241.162 L
267.552 248 L
cp
200.207 248 M
200.207 230.552 L
180.253 230.552 L
180.253 248 L
cp
112.908 248 M
112.908 163 L
92.954 163 L
92.954 248 L
cp
f
GR
GS
10.0 ML
0.5 LW
N
462.103 248 M
462.103 246.114 L
442.149 246.114 L
442.149 248 L
cp
S
GR
GS
10.0 ML
0.5 LW
N
374.805 248 M
374.805 243.52 L
354.851 243.52 L
354.851 248 L
cp
S
GR
GS
10.0 ML
0.5 LW
N
287.506 248 M
287.506 241.162 L
267.552 241.162 L
267.552 248 L
cp
S
GR
GS
10.0 ML
0.5 LW
N
200.207 248 M
200.207 230.552 L
180.253 230.552 L
180.253 248 L
cp
S
GR
GS
10.0 ML
0.5 LW
N
112.908 248 M
112.908 163 L
92.954 163 L
92.954 248 L
cp
S
GR
GS
0.149 GC
2 setlinecap
1 LJ
0.5 LW
N
507 248 M
73 248 L
S
GR
GS
0.149 GC
2 setlinecap
1 LJ
0.5 LW
N
507 163 M
73 163 L
S
GR
GS
0.149 GC
2 setlinecap
1 LJ
0.5 LW
N
464.598 248 M
464.598 243.66 L
S
GR
GS
0.149 GC
2 setlinecap
1 LJ
0.5 LW
N
377.299 248 M
377.299 243.66 L
S
GR
GS
0.149 GC
2 setlinecap
1 LJ
0.5 LW
N
290 248 M
290 243.66 L
S
GR
GS
0.149 GC
2 setlinecap
1 LJ
0.5 LW
N
202.701 248 M
202.701 243.66 L
S
GR
GS
0.149 GC
2 setlinecap
1 LJ
0.5 LW
N
115.402 248 M
115.402 243.66 L
S
GR
GS
0.149 GC
2 setlinecap
1 LJ
0.5 LW
N
464.598 163 M
464.598 167.34 L
S
GR
GS
0.149 GC
2 setlinecap
1 LJ
0.5 LW
N
377.299 163 M
377.299 167.34 L
S
GR
GS
0.149 GC
2 setlinecap
1 LJ
0.5 LW
N
290 163 M
290 167.34 L
S
GR
GS
0.149 GC
2 setlinecap
1 LJ
0.5 LW
N
202.701 163 M
202.701 167.34 L
S
GR
GS
0.149 GC
2 setlinecap
1 LJ
0.5 LW
N
115.402 163 M
115.402 167.34 L
S
GR
GS
[1 0 0 1 464.59769 252.39999] CT
0.149 GC
/Times-Roman 12 F
GS
[1 0 0 1 0 0] CT
-31 11 moveto 
1 -1 scale
(\(-1e-2,-8e-3]) t 
GR
GR
GS
[1 0 0 1 377.29886 252.39999] CT
0.149 GC
/Times-Roman 12 F
GS
[1 0 0 1 0 0] CT
-31 11 moveto 
1 -1 scale
(\(-8e-3,-6e-3]) t 
GR
GR
GS
[1 0 0 1 290 252.39999] CT
0.149 GC
/Times-Roman 12 F
GS
[1 0 0 1 0 0] CT
-31 11 moveto 
1 -1 scale
(\(-6e-3,-4e-3]) t 
GR
GR
GS
[1 0 0 1 202.70116 252.39999] CT
0.149 GC
/Times-Roman 12 F
GS
[1 0 0 1 0 0] CT
-31 11 moveto 
1 -1 scale
(\(-4e-3,-2e-3]) t 
GR
GR
GS
[1 0 0 1 115.40231 252.39999] CT
0.149 GC
/Times-Roman 12 F
GS
[1 0 0 1 0 0] CT
-16.5 11 moveto 
1 -1 scale
(>-2e-3) t 
GR
GR
GS
0.149 GC
2 setlinecap
1 LJ
0.5 LW
N
73 248 M
73 163 L
S
GR
GS
0.149 GC
2 setlinecap
1 LJ
0.5 LW
N
507 248 M
507 163 L
S
GR
GS
0.149 GC
2 setlinecap
1 LJ
0.5 LW
N
73 248 M
77.34 248 L
S
GR
GS
0.149 GC
2 setlinecap
1 LJ
0.5 LW
N
73 224.422 M
77.34 224.422 L
S
GR
GS
0.149 GC
2 setlinecap
1 LJ
0.5 LW
N
73 200.843 M
77.34 200.843 L
S
GR
GS
0.149 GC
2 setlinecap
1 LJ
0.5 LW
N
73 177.265 M
77.34 177.265 L
S
GR
GS
0.149 GC
2 setlinecap
1 LJ
0.5 LW
N
507 248 M
502.66 248 L
S
GR
GS
0.149 GC
2 setlinecap
1 LJ
0.5 LW
N
507 224.422 M
502.66 224.422 L
S
GR
GS
0.149 GC
2 setlinecap
1 LJ
0.5 LW
N
507 200.843 M
502.66 200.843 L
S
GR
GS
0.149 GC
2 setlinecap
1 LJ
0.5 LW
N
507 177.265 M
502.66 177.265 L
S
GR
GS
[1 0 0 1 68.6 248] CT
0.149 GC
/Times-Roman 12 F
GS
[1 0 0 1 0 0] CT
-6 4 moveto 
1 -1 scale
(0) t 
GR
GR
GS
[1 0 0 1 68.6 224.42163] CT
0.149 GC
/Times-Roman 12 F
GS
[1 0 0 1 0 0] CT
-18 4 moveto 
1 -1 scale
(200) t 
GR
GR
GS
[1 0 0 1 68.6 200.84328] CT
0.149 GC
/Times-Roman 12 F
GS
[1 0 0 1 0 0] CT
-18 4 moveto 
1 -1 scale
(400) t 
GR
GR
GS
[1 0 0 1 68.6 177.26491] CT
0.149 GC
/Times-Roman 12 F
GS
[1 0 0 1 0 0] CT
-18 4 moveto 
1 -1 scale
(600) t 
GR
GR
GS
[0 -1 1 0 47.6 205.49995] CT
0.149 GC
/Times-Roman 13.2 F
GS
[1 0 0 1 0 0] CT
-26.5 -3 moveto 
1 -1 scale
(frequency) t 
GR
GR
GS
1 GC
N
499 197.5 M
499 168 L
402.5 168 L
402.5 197.5 L
cp
f
GR
GS
[1 0 0 1 439.5 176.25] CT
/Times-Roman 10.8 F
GS
[1 0 0 1 0 0] CT
0 3.5 moveto 
1 -1 scale
(QSimulation) t 
GR
GR
GS
0 0.447 0.741 RC
N
436.5 180.938 M
436.5 171.563 L
406.5 171.563 L
406.5 180.938 L
cp
f
GR
GS
10.0 ML
0.5 LW
N
406.5 180.938 M
406.5 171.563 L
436.5 171.563 L
436.5 180.938 L
cp
S
GR
GS
[1 0 0 1 439.5 189.25] CT
/Times-Roman 10.8 F
GS
[1 0 0 1 0 0] CT
0 3.5 moveto 
1 -1 scale
(PGD) t 
GR
GR
GS
0.851 0.325 0.098 RC
N
436.5 193.938 M
436.5 184.563 L
406.5 184.563 L
406.5 193.938 L
cp
f
GR
GS
10.0 ML
0.5 LW
N
406.5 193.938 M
406.5 184.563 L
436.5 184.563 L
436.5 193.938 L
cp
S
GR
GS
0.149 GC
10.0 ML
0.5 LW
N
402.5 197.5 M
402.5 168 L
499 168 L
499 197.5 L
cp
S
GR
GS
1 GC
N
73 374 M
507 374 L
507 289 L
73 289 L
cp
f
GR
GS
[1 0 0 1 290.00027 287.35001] CT
/Times-Bold 13.2 F
GS
[1 0 0 1 0 0] CT
-31.5 -3 moveto 
1 -1 scale
(dim = 1000) t 
GR
GR
GS
0.149 GC
1 LJ
0.5 LW
N
507 374 M
73 374 L
S
GR
GS
0 0.447 0.741 RC
N
487.046 374 M
487.046 370.175 L
467.092 370.175 L
467.092 374 L
cp
399.747 374 M
399.747 367.54 L
379.793 367.54 L
379.793 374 L
cp
312.448 374 M
312.448 365.585 L
292.494 365.585 L
292.494 374 L
cp
225.149 374 M
225.149 361.76 L
205.195 361.76 L
205.195 374 L
cp
137.851 374 M
137.851 329.8 L
117.897 329.8 L
117.897 374 L
cp
f
GR
GS
10.0 ML
0.5 LW
N
487.046 374 M
487.046 370.175 L
467.092 370.175 L
467.092 374 L
cp
S
GR
GS
10.0 ML
0.5 LW
N
399.747 374 M
399.747 367.54 L
379.793 367.54 L
379.793 374 L
cp
S
GR
GS
10.0 ML
0.5 LW
N
312.448 374 M
312.448 365.585 L
292.494 365.585 L
292.494 374 L
cp
S
GR
GS
10.0 ML
0.5 LW
N
225.149 374 M
225.149 361.76 L
205.195 361.76 L
205.195 374 L
cp
S
GR
GS
10.0 ML
0.5 LW
N
137.851 374 M
137.851 329.8 L
117.897 329.8 L
117.897 374 L
cp
S
GR
GS
0.851 0.325 0.098 RC
N
374.805 374 M
374.805 373.235 L
354.851 373.235 L
354.851 374 L
cp
287.506 374 M
287.506 370.6 L
267.552 370.6 L
267.552 374 L
cp
200.207 374 M
200.207 363.63 L
180.253 363.63 L
180.253 374 L
cp
112.908 374 M
112.908 303.705 L
92.954 303.705 L
92.954 374 L
cp
f
GR
GS
10.0 ML
0.5 LW
N
462.103 374 M
462.103 374 L
442.149 374 L
442.149 374 L
cp
S
GR
GS
10.0 ML
0.5 LW
N
374.805 374 M
374.805 373.235 L
354.851 373.235 L
354.851 374 L
cp
S
GR
GS
10.0 ML
0.5 LW
N
287.506 374 M
287.506 370.6 L
267.552 370.6 L
267.552 374 L
cp
S
GR
GS
10.0 ML
0.5 LW
N
200.207 374 M
200.207 363.63 L
180.253 363.63 L
180.253 374 L
cp
S
GR
GS
10.0 ML
0.5 LW
N
112.908 374 M
112.908 303.705 L
92.954 303.705 L
92.954 374 L
cp
S
GR
GS
0.149 GC
2 setlinecap
1 LJ
0.5 LW
N
507 374 M
73 374 L
S
GR
GS
0.149 GC
2 setlinecap
1 LJ
0.5 LW
N
507 289 M
73 289 L
S
GR
GS
0.149 GC
2 setlinecap
1 LJ
0.5 LW
N
464.598 374 M
464.598 369.66 L
S
GR
GS
0.149 GC
2 setlinecap
1 LJ
0.5 LW
N
377.299 374 M
377.299 369.66 L
S
GR
GS
0.149 GC
2 setlinecap
1 LJ
0.5 LW
N
290 374 M
290 369.66 L
S
GR
GS
0.149 GC
2 setlinecap
1 LJ
0.5 LW
N
202.701 374 M
202.701 369.66 L
S
GR
GS
0.149 GC
2 setlinecap
1 LJ
0.5 LW
N
115.402 374 M
115.402 369.66 L
S
GR
GS
0.149 GC
2 setlinecap
1 LJ
0.5 LW
N
464.598 289 M
464.598 293.34 L
S
GR
GS
0.149 GC
2 setlinecap
1 LJ
0.5 LW
N
377.299 289 M
377.299 293.34 L
S
GR
GS
0.149 GC
2 setlinecap
1 LJ
0.5 LW
N
290 289 M
290 293.34 L
S
GR
GS
0.149 GC
2 setlinecap
1 LJ
0.5 LW
N
202.701 289 M
202.701 293.34 L
S
GR
GS
0.149 GC
2 setlinecap
1 LJ
0.5 LW
N
115.402 289 M
115.402 293.34 L
S
GR
GS
[1 0 0 1 464.59769 378.39999] CT
0.149 GC
/Times-Roman 12 F
GS
[1 0 0 1 0 0] CT
-27.5 11 moveto 
1 -1 scale
(\(-0.25,-0.2]) t 
GR
GR
GS
[1 0 0 1 377.29886 378.39999] CT
0.149 GC
/Times-Roman 12 F
GS
[1 0 0 1 0 0] CT
-27.5 11 moveto 
1 -1 scale
(\(-0.2,-0.15]) t 
GR
GR
GS
[1 0 0 1 290 378.39999] CT
0.149 GC
/Times-Roman 12 F
GS
[1 0 0 1 0 0] CT
-27.5 11 moveto 
1 -1 scale
(\(-0.15,-0.1]) t 
GR
GR
GS
[1 0 0 1 202.70116 378.39999] CT
0.149 GC
/Times-Roman 12 F
GS
[1 0 0 1 0 0] CT
-27.5 11 moveto 
1 -1 scale
(\(-0.05,-0.1]) t 
GR
GR
GS
[1 0 0 1 115.4023 378.39999] CT
0.149 GC
/Times-Roman 12 F
GS
[1 0 0 1 0 0] CT
-13 11 moveto 
1 -1 scale
(>-0.1) t 
GR
GR
GS
[1 0 0 1 290.00018 393.39999] CT
0.149 GC
N
-15.253 13.229 M
-15.019 13.416 -14.675 13.416 QT
-14.206 13.416 -13.909 12.385 QT
-13.8 11.9 -13.253 9.119 QT
-12.659 5.947 L
-13.769 5.947 L
-13.909 5.947 -13.909 5.775 QT
-13.847 5.479 -13.737 5.479 QT
-12.581 5.479 L
-12.425 4.635 L
-12.347 4.244 -12.284 3.963 QT
-12.222 3.682 -12.151 3.44 QT
-12.081 3.197 -11.925 2.9 QT
-11.706 2.479 -11.331 2.197 QT
-10.956 1.916 -10.519 1.916 QT
-10.222 1.916 -9.956 2.025 QT
-9.69 2.135 -9.519 2.346 QT
-9.347 2.557 -9.347 2.838 QT
-9.347 3.166 -9.565 3.408 QT
-9.784 3.65 -10.097 3.65 QT
-10.3 3.65 -10.448 3.525 QT
-10.597 3.4 -10.597 3.182 QT
-10.597 2.9 -10.409 2.69 QT
-10.222 2.479 -9.925 2.447 QT
-10.175 2.26 -10.519 2.26 QT
-10.722 2.26 -10.894 2.44 QT
-11.065 2.619 -11.128 2.838 QT
-11.206 3.166 -11.487 4.619 QT
-11.644 5.479 L
-10.3 5.479 L
-10.175 5.479 -10.175 5.65 QT
-10.19 5.682 -10.206 5.76 QT
-10.222 5.838 -10.253 5.893 QT
-10.284 5.947 -10.347 5.947 QT
-11.737 5.947 L
-12.331 9.119 L
-12.456 9.807 -12.605 10.518 QT
-12.753 11.229 -13.019 11.986 QT
-13.284 12.744 -13.706 13.252 QT
-14.128 13.76 -14.69 13.76 QT
-15.128 13.76 -15.48 13.51 QT
-15.831 13.26 -15.831 12.838 QT
-15.831 12.51 -15.612 12.268 QT
-15.394 12.025 -15.081 12.025 QT
-14.862 12.025 -14.714 12.15 QT
-14.565 12.275 -14.565 12.494 QT
-14.565 12.775 -14.776 13.002 QT
-14.987 13.229 -15.253 13.229 QT
cp
f
GR
GS
[1 0 0 1 290.00018 393.39999] CT
0.149 GC
N
-4.604 14.307 M
-5.323 13.744 -5.846 13.002 QT
-6.37 12.26 -6.706 11.424 QT
-7.041 10.588 -7.206 9.674 QT
-7.37 8.76 -7.37 7.838 QT
-7.37 6.9 -7.206 5.986 QT
-7.041 5.072 -6.706 4.229 QT
-6.37 3.385 -5.838 2.65 QT
-5.307 1.916 -4.604 1.369 QT
-4.604 1.338 -4.541 1.338 QT
-4.416 1.338 L
-4.385 1.338 -4.354 1.369 QT
-4.323 1.4 -4.323 1.447 QT
-4.323 1.51 -4.338 1.541 QT
-4.979 2.15 -5.401 2.861 QT
-5.823 3.572 -6.081 4.377 QT
-6.338 5.182 -6.456 6.041 QT
-6.573 6.9 -6.573 7.838 QT
-6.573 11.963 -4.354 14.119 QT
-4.323 14.15 -4.323 14.229 QT
-4.323 14.26 -4.354 14.299 QT
-4.385 14.338 -4.416 14.338 QT
-4.541 14.338 L
-4.604 14.338 -4.604 14.307 QT
cp
f
GR
GS
[1 0 0 1 290.00018 393.39999] CT
0.149 GC
N
-2.486 10.713 M
-2.252 10.885 -1.846 10.885 QT
-1.439 10.885 -1.127 10.494 QT
-0.814 10.104 -0.689 9.65 QT
-0.111 7.338 L
0.029 6.713 0.029 6.479 QT
0.029 6.166 -0.15 5.924 QT
-0.33 5.682 -0.658 5.682 QT
-1.064 5.682 -1.424 5.94 QT
-1.783 6.197 -2.033 6.596 QT
-2.283 6.994 -2.377 7.4 QT
-2.408 7.479 -2.486 7.479 QT
-2.642 7.479 L
-2.752 7.479 -2.752 7.354 QT
-2.752 7.322 L
-2.627 6.838 -2.322 6.377 QT
-2.017 5.916 -1.572 5.627 QT
-1.127 5.338 -0.627 5.338 QT
-0.142 5.338 0.24 5.596 QT
0.623 5.854 0.779 6.291 QT
0.998 5.885 1.342 5.611 QT
1.686 5.338 2.108 5.338 QT
2.389 5.338 2.678 5.44 QT
2.967 5.541 3.154 5.744 QT
3.342 5.947 3.342 6.244 QT
3.342 6.588 3.123 6.822 QT
2.904 7.057 2.576 7.057 QT
2.373 7.057 2.233 6.924 QT
2.092 6.791 2.092 6.588 QT
2.092 6.307 2.279 6.104 QT
2.467 5.9 2.733 5.869 QT
2.498 5.682 2.076 5.682 QT
1.654 5.682 1.35 6.065 QT
1.045 6.447 0.92 6.932 QT
0.342 9.229 L
0.201 9.744 0.201 10.088 QT
0.201 10.416 0.389 10.65 QT
0.576 10.885 0.889 10.885 QT
1.498 10.885 1.975 10.354 QT
2.451 9.822 2.608 9.182 QT
2.639 9.104 2.717 9.104 QT
2.873 9.104 L
2.92 9.104 2.951 9.135 QT
2.983 9.166 2.983 9.213 QT
2.983 9.229 2.967 9.26 QT
2.795 10.025 2.201 10.627 QT
1.608 11.229 0.873 11.229 QT
0.389 11.229 0.006 10.971 QT
-0.377 10.713 -0.533 10.275 QT
-0.736 10.666 -1.096 10.947 QT
-1.455 11.229 -1.861 11.229 QT
-2.142 11.229 -2.439 11.135 QT
-2.736 11.041 -2.916 10.838 QT
-3.096 10.635 -3.096 10.322 QT
-3.096 10.01 -2.885 9.76 QT
-2.674 9.51 -2.361 9.51 QT
-2.142 9.51 -1.994 9.643 QT
-1.846 9.775 -1.846 9.979 QT
-1.846 10.26 -2.033 10.463 QT
-2.221 10.666 -2.486 10.713 QT
cp
f
GR
GS
[1 0 0 1 290.00018 393.39999] CT
0.149 GC
N
4.449 12.943 M
4.464 12.927 4.48 12.873 QT
4.495 12.818 4.519 12.787 QT
4.542 12.755 4.589 12.755 QT
5.355 12.755 5.605 12.709 QT
5.855 12.646 5.902 12.443 QT
7.12 7.505 L
7.167 7.396 7.167 7.302 QT
7.167 7.24 6.855 7.24 QT
6.324 7.24 L
5.73 7.24 5.402 7.419 QT
5.074 7.599 4.917 7.904 QT
4.761 8.209 4.527 8.896 QT
4.495 8.974 4.433 8.974 QT
4.355 8.974 L
4.261 8.974 4.261 8.865 QT
4.902 7.005 L
4.917 6.927 4.98 6.927 QT
10.308 6.927 L
10.402 6.927 10.402 7.037 QT
10.105 8.896 L
10.105 8.927 10.074 8.951 QT
10.042 8.974 10.011 8.974 QT
9.933 8.974 L
9.839 8.974 9.839 8.865 QT
9.933 8.224 9.933 7.959 QT
9.933 7.646 9.8 7.482 QT
9.667 7.318 9.456 7.279 QT
9.245 7.24 8.917 7.24 QT
8.386 7.24 L
8.136 7.24 8.05 7.279 QT
7.964 7.318 7.917 7.537 QT
6.683 12.49 L
6.667 12.505 6.667 12.521 QT
6.667 12.537 6.667 12.568 QT
6.667 12.677 6.792 12.709 QT
7.027 12.755 7.792 12.755 QT
7.886 12.755 7.886 12.865 QT
7.855 12.99 7.839 13.029 QT
7.824 13.068 7.73 13.068 QT
4.542 13.068 L
4.449 13.068 4.449 12.943 QT
cp
f
GR
GS
[1 0 0 1 290.00018 393.39999] CT
0.149 GC
N
12.229 14.338 M
12.12 14.338 12.12 14.229 QT
12.12 14.166 12.135 14.135 QT
14.37 11.963 14.37 7.838 QT
14.37 3.713 12.167 1.557 QT
12.12 1.525 12.12 1.447 QT
12.12 1.4 12.151 1.369 QT
12.182 1.338 12.229 1.338 QT
12.354 1.338 L
12.385 1.338 12.417 1.369 QT
13.354 2.104 13.971 3.158 QT
14.588 4.213 14.877 5.4 QT
15.167 6.588 15.167 7.838 QT
15.167 8.76 15.01 9.65 QT
14.854 10.541 14.518 11.408 QT
14.182 12.275 13.659 13.01 QT
13.135 13.744 12.417 14.307 QT
12.385 14.338 12.354 14.338 QT
12.229 14.338 L
cp
f
GR
GS
0.149 GC
2 setlinecap
1 LJ
0.5 LW
N
73 374 M
73 289 L
S
GR
GS
0.149 GC
2 setlinecap
1 LJ
0.5 LW
N
507 374 M
507 289 L
S
GR
GS
0.149 GC
2 setlinecap
1 LJ
0.5 LW
N
73 374 M
77.34 374 L
S
GR
GS
0.149 GC
2 setlinecap
1 LJ
0.5 LW
N
73 331.5 M
77.34 331.5 L
S
GR
GS
0.149 GC
2 setlinecap
1 LJ
0.5 LW
N
73 289 M
77.34 289 L
S
GR
GS
0.149 GC
2 setlinecap
1 LJ
0.5 LW
N
507 374 M
502.66 374 L
S
GR
GS
0.149 GC
2 setlinecap
1 LJ
0.5 LW
N
507 331.5 M
502.66 331.5 L
S
GR
GS
0.149 GC
2 setlinecap
1 LJ
0.5 LW
N
507 289 M
502.66 289 L
S
GR
GS
[1 0 0 1 68.6 374] CT
0.149 GC
/Times-Roman 12 F
GS
[1 0 0 1 0 0] CT
-6 4 moveto 
1 -1 scale
(0) t 
GR
GR
GS
[1 0 0 1 68.6 331.5] CT
0.149 GC
/Times-Roman 12 F
GS
[1 0 0 1 0 0] CT
-18 4 moveto 
1 -1 scale
(500) t 
GR
GR
GS
[1 0 0 1 68.6 289] CT
0.149 GC
/Times-Roman 12 F
GS
[1 0 0 1 0 0] CT
-24 4 moveto 
1 -1 scale
(1000) t 
GR
GR
GS
1 GC
N
499 323.5 M
499 294 L
402.5 294 L
402.5 323.5 L
cp
f
GR
GS
[1 0 0 1 439.5 302.25] CT
/Times-Roman 10.8 F
GS
[1 0 0 1 0 0] CT
0 3.5 moveto 
1 -1 scale
(QSimulation) t 
GR
GR
GS
0 0.447 0.741 RC
N
436.5 306.938 M
436.5 297.563 L
406.5 297.563 L
406.5 306.938 L
cp
f
GR
GS
10.0 ML
0.5 LW
N
406.5 306.938 M
406.5 297.563 L
436.5 297.563 L
436.5 306.938 L
cp
S
GR
GS
[1 0 0 1 439.5 315.25] CT
/Times-Roman 10.8 F
GS
[1 0 0 1 0 0] CT
0 3.5 moveto 
1 -1 scale
(PGD) t 
GR
GR
GS
0.851 0.325 0.098 RC
N
436.5 319.938 M
436.5 310.563 L
406.5 310.563 L
406.5 319.938 L
cp
f
GR
GS
10.0 ML
0.5 LW
N
406.5 319.938 M
406.5 310.563 L
436.5 310.563 L
436.5 319.938 L
cp
S
GR
GS
0.149 GC
10.0 ML
0.5 LW
N
402.5 323.5 M
402.5 294 L
499 294 L
499 323.5 L
cp
S
GR
%%Trailer
%%Pages: 1
%%EOF
