%!PS-Adobe-3.0 EPSF-3.0
%%Creator: (MATLAB, The Mathworks, Inc. Version 9.6.0.1335978 \(R2019a\) Update 8. Operating System: Mac OS X)
%%Title: /Users/lengjiaqi/quantum-esc-saddle/result_nonquadratic.eps
%%CreationDate: 2020-05-30T00:40:47
%%Pages: (atend)
%%BoundingBox: 0 0 700 275
%%LanguageLevel: 3
%%EndComments
%%BeginProlog
%%BeginResource: procset (Apache XML Graphics Std ProcSet) 1.2 0
%%Version: 1.2 0
%%Copyright: (Copyright 2001-2003,2010 The Apache Software Foundation. License terms: http://www.apache.org/licenses/LICENSE-2.0)
/bd{bind def}bind def
/ld{load def}bd
/GR/grestore ld
/GS/gsave ld
/RM/rmoveto ld
/C/curveto ld
/t/show ld
/L/lineto ld
/ML/setmiterlimit ld
/CT/concat ld
/f/fill ld
/N/newpath ld
/S/stroke ld
/CC/setcmykcolor ld
/A/ashow ld
/cp/closepath ld
/RC/setrgbcolor ld
/LJ/setlinejoin ld
/GC/setgray ld
/LW/setlinewidth ld
/M/moveto ld
/re {4 2 roll M
1 index 0 rlineto
0 exch rlineto
neg 0 rlineto
cp } bd
/_ctm matrix def
/_tm matrix def
/BT { _ctm currentmatrix pop matrix _tm copy pop 0 0 moveto } bd
/ET { _ctm setmatrix } bd
/iTm { _ctm setmatrix _tm concat } bd
/Tm { _tm astore pop iTm 0 0 moveto } bd
/ux 0.0 def
/uy 0.0 def
/F {
  /Tp exch def
  /Tf exch def
  Tf findfont Tp scalefont setfont
  /cf Tf def  /cs Tp def
} bd
/ULS {currentpoint /uy exch def /ux exch def} bd
/ULE {
  /Tcx currentpoint pop def
  gsave
  newpath
  cf findfont cs scalefont dup
  /FontMatrix get 0 get /Ts exch def /FontInfo get dup
  /UnderlinePosition get Ts mul /To exch def
  /UnderlineThickness get Ts mul /Tt exch def
  ux uy To add moveto  Tcx uy To add lineto
  Tt setlinewidth stroke
  grestore
} bd
/OLE {
  /Tcx currentpoint pop def
  gsave
  newpath
  cf findfont cs scalefont dup
  /FontMatrix get 0 get /Ts exch def /FontInfo get dup
  /UnderlinePosition get Ts mul /To exch def
  /UnderlineThickness get Ts mul /Tt exch def
  ux uy To add cs add moveto Tcx uy To add cs add lineto
  Tt setlinewidth stroke
  grestore
} bd
/SOE {
  /Tcx currentpoint pop def
  gsave
  newpath
  cf findfont cs scalefont dup
  /FontMatrix get 0 get /Ts exch def /FontInfo get dup
  /UnderlinePosition get Ts mul /To exch def
  /UnderlineThickness get Ts mul /Tt exch def
  ux uy To add cs 10 mul 26 idiv add moveto Tcx uy To add cs 10 mul 26 idiv add lineto
  Tt setlinewidth stroke
  grestore
} bd
/QT {
/Y22 exch store
/X22 exch store
/Y21 exch store
/X21 exch store
currentpoint
/Y21 load 2 mul add 3 div exch
/X21 load 2 mul add 3 div exch
/X21 load 2 mul /X22 load add 3 div
/Y21 load 2 mul /Y22 load add 3 div
/X22 load /Y22 load curveto
} bd
/SSPD {
dup length /d exch dict def
{
/v exch def
/k exch def
currentpagedevice k known {
/cpdv currentpagedevice k get def
v cpdv ne {
/upd false def
/nullv v type /nulltype eq def
/nullcpdv cpdv type /nulltype eq def
nullv nullcpdv or
{
/upd true def
} {
/sametype v type cpdv type eq def
sametype {
v type /arraytype eq {
/vlen v length def
/cpdvlen cpdv length def
vlen cpdvlen eq {
0 1 vlen 1 sub {
/i exch def
/obj v i get def
/cpdobj cpdv i get def
obj cpdobj ne {
/upd true def
exit
} if
} for
} {
/upd true def
} ifelse
} {
v type /dicttype eq {
v {
/dv exch def
/dk exch def
/cpddv cpdv dk get def
dv cpddv ne {
/upd true def
exit
} if
} forall
} {
/upd true def
} ifelse
} ifelse
} if
} ifelse
upd true eq {
d k v put
} if
} if
} if
} forall
d length 0 gt {
d setpagedevice
} if
} bd
/RE { % /NewFontName [NewEncodingArray] /FontName RE -
  findfont dup length dict begin
  {
    1 index /FID ne
    {def} {pop pop} ifelse
  } forall
  /Encoding exch def
  /FontName 1 index def
  currentdict definefont pop
  end
} bind def
%%EndResource
%%BeginResource: procset (Apache XML Graphics EPS ProcSet) 1.0 0
%%Version: 1.0 0
%%Copyright: (Copyright 2002-2003 The Apache Software Foundation. License terms: http://www.apache.org/licenses/LICENSE-2.0)
/BeginEPSF { %def
/b4_Inc_state save def         % Save state for cleanup
/dict_count countdictstack def % Count objects on dict stack
/op_count count 1 sub def      % Count objects on operand stack
userdict begin                 % Push userdict on dict stack
/showpage { } def              % Redefine showpage, { } = null proc
0 setgray 0 setlinecap         % Prepare graphics state
1 setlinewidth 0 setlinejoin
10 setmiterlimit [ ] 0 setdash newpath
/languagelevel where           % If level not equal to 1 then
{pop languagelevel             % set strokeadjust and
1 ne                           % overprint to their defaults.
{false setstrokeadjust false setoverprint
} if
} if
} bd
/EndEPSF { %def
count op_count sub {pop} repeat            % Clean up stacks
countdictstack dict_count sub {end} repeat
b4_Inc_state restore
} bd
%%EndResource
%FOPBeginFontDict
%%IncludeResource: font Courier-Oblique
%%IncludeResource: font Courier-BoldOblique
%%IncludeResource: font Courier-Bold
%%IncludeResource: font ZapfDingbats
%%IncludeResource: font Symbol
%%IncludeResource: font Helvetica
%%IncludeResource: font Helvetica-Oblique
%%IncludeResource: font Helvetica-Bold
%%IncludeResource: font Helvetica-BoldOblique
%%IncludeResource: font Times-Roman
%%IncludeResource: font Times-Italic
%%IncludeResource: font Times-Bold
%%IncludeResource: font Times-BoldItalic
%%IncludeResource: font Courier
%FOPEndFontDict
%%BeginResource: encoding WinAnsiEncoding
/WinAnsiEncoding [
/.notdef /.notdef /.notdef /.notdef /.notdef
/.notdef /.notdef /.notdef /.notdef /.notdef
/.notdef /.notdef /.notdef /.notdef /.notdef
/.notdef /.notdef /.notdef /.notdef /.notdef
/.notdef /.notdef /.notdef /.notdef /.notdef
/.notdef /.notdef /.notdef /.notdef /.notdef
/.notdef /.notdef /space /exclam /quotedbl
/numbersign /dollar /percent /ampersand /quotesingle
/parenleft /parenright /asterisk /plus /comma
/hyphen /period /slash /zero /one
/two /three /four /five /six
/seven /eight /nine /colon /semicolon
/less /equal /greater /question /at
/A /B /C /D /E
/F /G /H /I /J
/K /L /M /N /O
/P /Q /R /S /T
/U /V /W /X /Y
/Z /bracketleft /backslash /bracketright /asciicircum
/underscore /quoteleft /a /b /c
/d /e /f /g /h
/i /j /k /l /m
/n /o /p /q /r
/s /t /u /v /w
/x /y /z /braceleft /bar
/braceright /asciitilde /bullet /Euro /bullet
/quotesinglbase /florin /quotedblbase /ellipsis /dagger
/daggerdbl /circumflex /perthousand /Scaron /guilsinglleft
/OE /bullet /Zcaron /bullet /bullet
/quoteleft /quoteright /quotedblleft /quotedblright /bullet
/endash /emdash /asciitilde /trademark /scaron
/guilsinglright /oe /bullet /zcaron /Ydieresis
/space /exclamdown /cent /sterling /currency
/yen /brokenbar /section /dieresis /copyright
/ordfeminine /guillemotleft /logicalnot /sfthyphen /registered
/macron /degree /plusminus /twosuperior /threesuperior
/acute /mu /paragraph /middot /cedilla
/onesuperior /ordmasculine /guillemotright /onequarter /onehalf
/threequarters /questiondown /Agrave /Aacute /Acircumflex
/Atilde /Adieresis /Aring /AE /Ccedilla
/Egrave /Eacute /Ecircumflex /Edieresis /Igrave
/Iacute /Icircumflex /Idieresis /Eth /Ntilde
/Ograve /Oacute /Ocircumflex /Otilde /Odieresis
/multiply /Oslash /Ugrave /Uacute /Ucircumflex
/Udieresis /Yacute /Thorn /germandbls /agrave
/aacute /acircumflex /atilde /adieresis /aring
/ae /ccedilla /egrave /eacute /ecircumflex
/edieresis /igrave /iacute /icircumflex /idieresis
/eth /ntilde /ograve /oacute /ocircumflex
/otilde /odieresis /divide /oslash /ugrave
/uacute /ucircumflex /udieresis /yacute /thorn
/ydieresis
] def
%%EndResource
%FOPBeginFontReencode
/Courier-Oblique findfont
dup length dict begin
  {1 index /FID ne {def} {pop pop} ifelse} forall
  /Encoding WinAnsiEncoding def
  currentdict
end
/Courier-Oblique exch definefont pop
/Courier-BoldOblique findfont
dup length dict begin
  {1 index /FID ne {def} {pop pop} ifelse} forall
  /Encoding WinAnsiEncoding def
  currentdict
end
/Courier-BoldOblique exch definefont pop
/Courier-Bold findfont
dup length dict begin
  {1 index /FID ne {def} {pop pop} ifelse} forall
  /Encoding WinAnsiEncoding def
  currentdict
end
/Courier-Bold exch definefont pop
/Helvetica findfont
dup length dict begin
  {1 index /FID ne {def} {pop pop} ifelse} forall
  /Encoding WinAnsiEncoding def
  currentdict
end
/Helvetica exch definefont pop
/Helvetica-Oblique findfont
dup length dict begin
  {1 index /FID ne {def} {pop pop} ifelse} forall
  /Encoding WinAnsiEncoding def
  currentdict
end
/Helvetica-Oblique exch definefont pop
/Helvetica-Bold findfont
dup length dict begin
  {1 index /FID ne {def} {pop pop} ifelse} forall
  /Encoding WinAnsiEncoding def
  currentdict
end
/Helvetica-Bold exch definefont pop
/Helvetica-BoldOblique findfont
dup length dict begin
  {1 index /FID ne {def} {pop pop} ifelse} forall
  /Encoding WinAnsiEncoding def
  currentdict
end
/Helvetica-BoldOblique exch definefont pop
/Times-Roman findfont
dup length dict begin
  {1 index /FID ne {def} {pop pop} ifelse} forall
  /Encoding WinAnsiEncoding def
  currentdict
end
/Times-Roman exch definefont pop
/Times-Italic findfont
dup length dict begin
  {1 index /FID ne {def} {pop pop} ifelse} forall
  /Encoding WinAnsiEncoding def
  currentdict
end
/Times-Italic exch definefont pop
/Times-Bold findfont
dup length dict begin
  {1 index /FID ne {def} {pop pop} ifelse} forall
  /Encoding WinAnsiEncoding def
  currentdict
end
/Times-Bold exch definefont pop
/Times-BoldItalic findfont
dup length dict begin
  {1 index /FID ne {def} {pop pop} ifelse} forall
  /Encoding WinAnsiEncoding def
  currentdict
end
/Times-BoldItalic exch definefont pop
/Courier findfont
dup length dict begin
  {1 index /FID ne {def} {pop pop} ifelse} forall
  /Encoding WinAnsiEncoding def
  currentdict
end
/Courier exch definefont pop
%FOPEndFontReencode
%%EndProlog
%%Page: 1 1
%%PageBoundingBox: 0 0 700 275
%%BeginPageSetup
[1 0 0 -1 0 275] CT
%%EndPageSetup
GS
1 GC
N
0 0 700 275 re
f
GR
GS
1 GC
N
0 0 700 275 re
f
GR
GS
1 GC
N
91 240.5 M
325.5 240.5 L
325.5 20.5 L
91 20.5 L
cp
f
GR
GS
0.149 GC
2 setlinecap
1 LJ
0.5 LW
N
91 240.5 M
325.5 240.5 L
S
GR
GS
0.149 GC
2 setlinecap
1 LJ
0.5 LW
N
91 20.5 M
325.5 20.5 L
S
GR
GS
0.149 GC
2 setlinecap
1 LJ
0.5 LW
N
91 240.5 M
91 238.155 L
S
GR
GS
0.149 GC
2 setlinecap
1 LJ
0.5 LW
N
137.9 240.5 M
137.9 238.155 L
S
GR
GS
0.149 GC
2 setlinecap
1 LJ
0.5 LW
N
184.8 240.5 M
184.8 238.155 L
S
GR
GS
0.149 GC
2 setlinecap
1 LJ
0.5 LW
N
231.7 240.5 M
231.7 238.155 L
S
GR
GS
0.149 GC
2 setlinecap
1 LJ
0.5 LW
N
278.6 240.5 M
278.6 238.155 L
S
GR
GS
0.149 GC
2 setlinecap
1 LJ
0.5 LW
N
91 20.5 M
91 22.845 L
S
GR
GS
0.149 GC
2 setlinecap
1 LJ
0.5 LW
N
137.9 20.5 M
137.9 22.845 L
S
GR
GS
0.149 GC
2 setlinecap
1 LJ
0.5 LW
N
184.8 20.5 M
184.8 22.845 L
S
GR
GS
0.149 GC
2 setlinecap
1 LJ
0.5 LW
N
231.7 20.5 M
231.7 22.845 L
S
GR
GS
0.149 GC
2 setlinecap
1 LJ
0.5 LW
N
278.6 20.5 M
278.6 22.845 L
S
GR
GS
[1 0 0 1 91 244.89999] CT
0.149 GC
/Times-Roman 12 F
GS
[1 0 0 1 0 0] CT
-5 11 moveto 
1 -1 scale
(-2) t 
GR
GR
GS
[1 0 0 1 137.89999 244.89999] CT
0.149 GC
/Times-Roman 12 F
GS
[1 0 0 1 0 0] CT
-9.5 11 moveto 
1 -1 scale
(-1.5) t 
GR
GR
GS
[1 0 0 1 184.8 244.89999] CT
0.149 GC
/Times-Roman 12 F
GS
[1 0 0 1 0 0] CT
-5 11 moveto 
1 -1 scale
(-1) t 
GR
GR
GS
[1 0 0 1 231.7 244.89999] CT
0.149 GC
/Times-Roman 12 F
GS
[1 0 0 1 0 0] CT
-9.5 11 moveto 
1 -1 scale
(-0.5) t 
GR
GR
GS
[1 0 0 1 278.60001 244.89999] CT
0.149 GC
/Times-Roman 12 F
GS
[1 0 0 1 0 0] CT
-3 11 moveto 
1 -1 scale
(0) t 
GR
GR
GS
[1 0 0 1 208.25011 259.89999] CT
0.149 GC
/Times-Roman 13.2 F
GS
[1 0 0 1 0 0] CT
-5 12 moveto 
1 -1 scale
(X) t 
GR
GR
GS
0.149 GC
2 setlinecap
1 LJ
0.5 LW
N
91 240.5 M
91 20.5 L
S
GR
GS
0.149 GC
2 setlinecap
1 LJ
0.5 LW
N
325.5 240.5 M
325.5 20.5 L
S
GR
GS
0.149 GC
2 setlinecap
1 LJ
0.5 LW
N
91 240.5 M
93.345 240.5 L
S
GR
GS
0.149 GC
2 setlinecap
1 LJ
0.5 LW
N
91 185.5 M
93.345 185.5 L
S
GR
GS
0.149 GC
2 setlinecap
1 LJ
0.5 LW
N
91 130.5 M
93.345 130.5 L
S
GR
GS
0.149 GC
2 setlinecap
1 LJ
0.5 LW
N
91 75.5 M
93.345 75.5 L
S
GR
GS
0.149 GC
2 setlinecap
1 LJ
0.5 LW
N
91 20.5 M
93.345 20.5 L
S
GR
GS
0.149 GC
2 setlinecap
1 LJ
0.5 LW
N
325.5 240.5 M
323.155 240.5 L
S
GR
GS
0.149 GC
2 setlinecap
1 LJ
0.5 LW
N
325.5 185.5 M
323.155 185.5 L
S
GR
GS
0.149 GC
2 setlinecap
1 LJ
0.5 LW
N
325.5 130.5 M
323.155 130.5 L
S
GR
GS
0.149 GC
2 setlinecap
1 LJ
0.5 LW
N
325.5 75.5 M
323.155 75.5 L
S
GR
GS
0.149 GC
2 setlinecap
1 LJ
0.5 LW
N
325.5 20.5 M
323.155 20.5 L
S
GR
GS
[1 0 0 1 86.59999 240.5] CT
0.149 GC
/Times-Roman 12 F
GS
[1 0 0 1 0 0] CT
-19 4 moveto 
1 -1 scale
(-0.5) t 
GR
GR
GS
[1 0 0 1 86.59999 185.5] CT
0.149 GC
/Times-Roman 12 F
GS
[1 0 0 1 0 0] CT
-25 4 moveto 
1 -1 scale
(-0.25) t 
GR
GR
GS
[1 0 0 1 86.59999 130.5] CT
0.149 GC
/Times-Roman 12 F
GS
[1 0 0 1 0 0] CT
-6 4 moveto 
1 -1 scale
(0) t 
GR
GR
GS
[1 0 0 1 86.59999 75.5] CT
0.149 GC
/Times-Roman 12 F
GS
[1 0 0 1 0 0] CT
-21 4 moveto 
1 -1 scale
(0.25) t 
GR
GR
GS
[1 0 0 1 86.59999 20.5] CT
0.149 GC
/Times-Roman 12 F
GS
[1 0 0 1 0 0] CT
-15 4 moveto 
1 -1 scale
(0.5) t 
GR
GR
GS
[0 -1 1 0 58.59999 130.49989] CT
0.149 GC
/Times-Roman 13.2 F
GS
[1 0 0 1 0 0] CT
-5 -3 moveto 
1 -1 scale
(Y) t 
GR
GR
GS
[1 0 0 1 208.2502 18.85] CT
/Times-Bold 13.2 F
GS
[1 0 0 1 0 0] CT
-50 -3 moveto 
1 -1 scale
(Typical GD paths) t 
GR
GR
GS
0 0.447 0.741 RC
1 LJ
0.5 LW
N
277.662 229.5 M
277.474 209.7 L
277.249 193.86 L
276.979 181.188 L
276.655 171.05 L
276.266 162.94 L
275.799 156.452 L
275.239 151.262 L
274.568 147.109 L
273.762 143.788 L
272.795 141.13 L
271.635 139.004 L
270.245 137.303 L
268.578 135.943 L
266.582 134.854 L
264.191 133.983 L
261.332 133.287 L
257.918 132.729 L
253.848 132.283 L
249.013 131.927 L
S
GR
GS
[1 0 0 1 277.66199 229.5] CT
0 0.447 0.741 RC
10.0 ML
N
3 0 M
3 -1.657 1.657 -3 0 -3 C
-1.657 -3 -3 -1.657 -3 0 C
-3 1.657 -1.657 3 0 3 C
1.657 3 3 1.657 3 0 C
cp
S
GR
GS
[1 0 0 1 277.4744 209.7] CT
0 0.447 0.741 RC
10.0 ML
N
3 0 M
3 -1.657 1.657 -3 0 -3 C
-1.657 -3 -3 -1.657 -3 0 C
-3 1.657 -1.657 3 0 3 C
1.657 3 3 1.657 3 0 C
cp
S
GR
GS
[1 0 0 1 277.2493 193.86] CT
0 0.447 0.741 RC
10.0 ML
N
3 0 M
3 -1.657 1.657 -3 0 -3 C
-1.657 -3 -3 -1.657 -3 0 C
-3 1.657 -1.657 3 0 3 C
1.657 3 3 1.657 3 0 C
cp
S
GR
GS
[1 0 0 1 276.97919 181.188] CT
0 0.447 0.741 RC
10.0 ML
N
3 0 M
3 -1.657 1.657 -3 0 -3 C
-1.657 -3 -3 -1.657 -3 0 C
-3 1.657 -1.657 3 0 3 C
1.657 3 3 1.657 3 0 C
cp
S
GR
GS
[1 0 0 1 276.65503 171.0504] CT
0 0.447 0.741 RC
10.0 ML
N
3 0 M
3 -1.657 1.657 -3 0 -3 C
-1.657 -3 -3 -1.657 -3 0 C
-3 1.657 -1.657 3 0 3 C
1.657 3 3 1.657 3 0 C
cp
S
GR
GS
[1 0 0 1 276.26611 162.94032] CT
0 0.447 0.741 RC
10.0 ML
N
3 0 M
3 -1.657 1.657 -3 0 -3 C
-1.657 -3 -3 -1.657 -3 0 C
-3 1.657 -1.657 3 0 3 C
1.657 3 3 1.657 3 0 C
cp
S
GR
GS
[1 0 0 1 275.79944 156.45226] CT
0 0.447 0.741 RC
10.0 ML
N
3 0 M
3 -1.657 1.657 -3 0 -3 C
-1.657 -3 -3 -1.657 -3 0 C
-3 1.657 -1.657 3 0 3 C
1.657 3 3 1.657 3 0 C
cp
S
GR
GS
[1 0 0 1 275.23947 151.26181] CT
0 0.447 0.741 RC
10.0 ML
N
3 0 M
3 -1.657 1.657 -3 0 -3 C
-1.657 -3 -3 -1.657 -3 0 C
-3 1.657 -1.657 3 0 3 C
1.657 3 3 1.657 3 0 C
cp
S
GR
GS
[1 0 0 1 274.56766 147.10944] CT
0 0.447 0.741 RC
10.0 ML
N
3 0 M
3 -1.657 1.657 -3 0 -3 C
-1.657 -3 -3 -1.657 -3 0 C
-3 1.657 -1.657 3 0 3 C
1.657 3 3 1.657 3 0 C
cp
S
GR
GS
[1 0 0 1 273.76169 143.78755] CT
0 0.447 0.741 RC
10.0 ML
N
3 0 M
3 -1.657 1.657 -3 0 -3 C
-1.657 -3 -3 -1.657 -3 0 C
-3 1.657 -1.657 3 0 3 C
1.657 3 3 1.657 3 0 C
cp
S
GR
GS
[1 0 0 1 272.79489 141.13005] CT
0 0.447 0.741 RC
10.0 ML
N
3 0 M
3 -1.657 1.657 -3 0 -3 C
-1.657 -3 -3 -1.657 -3 0 C
-3 1.657 -1.657 3 0 3 C
1.657 3 3 1.657 3 0 C
cp
S
GR
GS
[1 0 0 1 271.63535 139.00403] CT
0 0.447 0.741 RC
10.0 ML
N
3 0 M
3 -1.657 1.657 -3 0 -3 C
-1.657 -3 -3 -1.657 -3 0 C
-3 1.657 -1.657 3 0 3 C
1.657 3 3 1.657 3 0 C
cp
S
GR
GS
[1 0 0 1 270.24496 137.30322] CT
0 0.447 0.741 RC
10.0 ML
N
3 0 M
3 -1.657 1.657 -3 0 -3 C
-1.657 -3 -3 -1.657 -3 0 C
-3 1.657 -1.657 3 0 3 C
1.657 3 3 1.657 3 0 C
cp
S
GR
GS
[1 0 0 1 268.5784 135.94258] CT
0 0.447 0.741 RC
10.0 ML
N
3 0 M
3 -1.657 1.657 -3 0 -3 C
-1.657 -3 -3 -1.657 -3 0 C
-3 1.657 -1.657 3 0 3 C
1.657 3 3 1.657 3 0 C
cp
S
GR
GS
[1 0 0 1 266.5817 134.85406] CT
0 0.447 0.741 RC
10.0 ML
N
3 0 M
3 -1.657 1.657 -3 0 -3 C
-1.657 -3 -3 -1.657 -3 0 C
-3 1.657 -1.657 3 0 3 C
1.657 3 3 1.657 3 0 C
cp
S
GR
GS
[1 0 0 1 264.19119 133.98325] CT
0 0.447 0.741 RC
10.0 ML
N
3 0 M
3 -1.657 1.657 -3 0 -3 C
-1.657 -3 -3 -1.657 -3 0 C
-3 1.657 -1.657 3 0 3 C
1.657 3 3 1.657 3 0 C
cp
S
GR
GS
[1 0 0 1 261.33209 133.28661] CT
0 0.447 0.741 RC
10.0 ML
N
3 0 M
3 -1.657 1.657 -3 0 -3 C
-1.657 -3 -3 -1.657 -3 0 C
-3 1.657 -1.657 3 0 3 C
1.657 3 3 1.657 3 0 C
cp
S
GR
GS
[1 0 0 1 257.91751 132.72928] CT
0 0.447 0.741 RC
10.0 ML
N
3 0 M
3 -1.657 1.657 -3 0 -3 C
-1.657 -3 -3 -1.657 -3 0 C
-3 1.657 -1.657 3 0 3 C
1.657 3 3 1.657 3 0 C
cp
S
GR
GS
[1 0 0 1 253.84807 132.28343] CT
0 0.447 0.741 RC
10.0 ML
N
3 0 M
3 -1.657 1.657 -3 0 -3 C
-1.657 -3 -3 -1.657 -3 0 C
-3 1.657 -1.657 3 0 3 C
1.657 3 3 1.657 3 0 C
cp
S
GR
GS
[1 0 0 1 249.01259 131.92674] CT
0 0.447 0.741 RC
10.0 ML
N
3 0 M
3 -1.657 1.657 -3 0 -3 C
-1.657 -3 -3 -1.657 -3 0 C
-3 1.657 -1.657 3 0 3 C
1.657 3 3 1.657 3 0 C
cp
S
GR
GS
0.851 0.325 0.098 RC
1 LJ
0.5 LW
N
245.77 115.1 M
239.472 118.18 L
232.1 120.644 L
223.562 122.615 L
213.818 124.192 L
202.922 125.454 L
191.07 126.463 L
178.645 127.27 L
166.221 127.916 L
154.499 128.433 L
144.161 128.846 L
135.684 129.177 L
129.219 129.442 L
124.6 129.653 L
121.474 129.823 L
119.442 129.958 L
118.159 130.067 L
117.364 130.153 L
116.877 130.223 L
116.582 130.278 L
S
GR
GS
[1 0 0 1 245.77 115.1] CT
0.851 0.325 0.098 RC
10.0 ML
N
-2 -2 M
-2 2 L
2 2 L
2 -2 L
cp
S
GR
GS
[1 0 0 1 239.47211 118.18] CT
0.851 0.325 0.098 RC
10.0 ML
N
-2 -2 M
-2 2 L
2 2 L
2 -2 L
cp
S
GR
GS
[1 0 0 1 232.10043 120.644] CT
0.851 0.325 0.098 RC
10.0 ML
N
-2 -2 M
-2 2 L
2 2 L
2 -2 L
cp
S
GR
GS
[1 0 0 1 223.56233 122.6152] CT
0.851 0.325 0.098 RC
10.0 ML
N
-2 -2 M
-2 2 L
2 2 L
2 -2 L
cp
S
GR
GS
[1 0 0 1 213.81804 124.19216] CT
0.851 0.325 0.098 RC
10.0 ML
N
-2 -2 M
-2 2 L
2 2 L
2 -2 L
cp
S
GR
GS
[1 0 0 1 202.92165 125.45373] CT
0.851 0.325 0.098 RC
10.0 ML
N
-2 -2 M
-2 2 L
2 2 L
2 -2 L
cp
S
GR
GS
[1 0 0 1 191.07008 126.46298] CT
0.851 0.325 0.098 RC
10.0 ML
N
-2 -2 M
-2 2 L
2 2 L
2 -2 L
cp
S
GR
GS
[1 0 0 1 178.64537 127.27039] CT
0.851 0.325 0.098 RC
10.0 ML
N
-2 -2 M
-2 2 L
2 2 L
2 -2 L
cp
S
GR
GS
[1 0 0 1 166.22124 127.91631] CT
0.851 0.325 0.098 RC
10.0 ML
N
-2 -2 M
-2 2 L
2 2 L
2 -2 L
cp
S
GR
GS
[1 0 0 1 154.49913 128.43304] CT
0.851 0.325 0.098 RC
10.0 ML
N
-2 -2 M
-2 2 L
2 2 L
2 -2 L
cp
S
GR
GS
[1 0 0 1 144.16092 128.84644] CT
0.851 0.325 0.098 RC
10.0 ML
N
-2 -2 M
-2 2 L
2 2 L
2 -2 L
cp
S
GR
GS
[1 0 0 1 135.6842 129.17715] CT
0.851 0.325 0.098 RC
10.0 ML
N
-2 -2 M
-2 2 L
2 2 L
2 -2 L
cp
S
GR
GS
[1 0 0 1 129.21893 129.44173] CT
0.851 0.325 0.098 RC
10.0 ML
N
-2 -2 M
-2 2 L
2 2 L
2 -2 L
cp
S
GR
GS
[1 0 0 1 124.60018 129.65338] CT
0.851 0.325 0.098 RC
10.0 ML
N
-2 -2 M
-2 2 L
2 2 L
2 -2 L
cp
S
GR
GS
[1 0 0 1 121.4737 129.82271] CT
0.851 0.325 0.098 RC
10.0 ML
N
-2 -2 M
-2 2 L
2 2 L
2 -2 L
cp
S
GR
GS
[1 0 0 1 119.44183 129.95816] CT
0.851 0.325 0.098 RC
10.0 ML
N
-2 -2 M
-2 2 L
2 2 L
2 -2 L
cp
S
GR
GS
[1 0 0 1 118.1587 130.06653] CT
0.851 0.325 0.098 RC
10.0 ML
N
-2 -2 M
-2 2 L
2 2 L
2 -2 L
cp
S
GR
GS
[1 0 0 1 117.36375 130.15323] CT
0.851 0.325 0.098 RC
10.0 ML
N
-2 -2 M
-2 2 L
2 2 L
2 -2 L
cp
S
GR
GS
[1 0 0 1 116.87728 130.22258] CT
0.851 0.325 0.098 RC
10.0 ML
N
-2 -2 M
-2 2 L
2 2 L
2 -2 L
cp
S
GR
GS
[1 0 0 1 116.58186 130.27806] CT
0.851 0.325 0.098 RC
10.0 ML
N
-2 -2 M
-2 2 L
2 2 L
2 -2 L
cp
S
GR
GS
[1 0 0 1 277.66199 229.5] CT
10.0 ML
N
-7.071 -7.071 M
7.071 7.071 L
-7.071 7.071 M
7.071 -7.071 L
S
GR
GS
[1 0 0 1 245.77 115.1] CT
10.0 ML
N
-7.071 -7.071 M
7.071 7.071 L
-7.071 7.071 M
7.071 -7.071 L
S
GR
GS
0.239 0.149 0.659 RC
1 LJ
0.5 LW
N
128.985 139.707 M
128.985 141.32 L
126.367 158.376 L
124.656 162.959 L
117.141 173.025 L
107.915 164.128 L
107.597 162.959 L
104.654 141.32 L
104.654 119.68 L
107.597 98.041 L
107.915 96.872 L
117.141 87.975 L
124.656 98.041 L
126.367 102.624 L
127.016 106.853 L
S
GR
GS
0.255 0.18 0.749 RC
1 LJ
0.5 LW
N
100.709 89.814 M
104.357 76.402 L
107.915 67.682 L
117.141 61.75 L
126.367 69.989 L
129.32 76.402 L
135.593 96.837 L
135.844 98.041 L
138.092 119.68 L
138.092 138.135 L
S
GR
GS
0.255 0.18 0.749 RC
1 LJ
0.5 LW
N
135.202 165.437 M
129.32 184.598 L
126.367 191.011 L
117.141 199.25 L
107.915 193.318 L
104.357 184.598 L
98.689 163.756 L
98.572 162.959 L
96.985 141.32 L
96.985 119.68 L
97.183 116.989 L
S
GR
GS
0.169 0.569 0.933 RC
1 LJ
0.5 LW
N
172.759 119.043 M
172.799 119.68 L
172.799 141.32 L
172.498 146.045 L
171.375 162.959 L
168.499 184.598 L
164.186 206.238 L
163.272 209.678 L
158.015 227.877 L
154.046 238.871 L
153.359 240.526 L
S
GR
GS
0.169 0.569 0.933 RC
1 LJ
0.5 LW
N
153.359 20.474 M
154.046 22.129 L
158.015 33.123 L
163.272 51.322 L
164.186 54.762 L
168.499 76.402 L
170.524 91.641 L
S
GR
GS
0.243 0.788 0.553 RC
1 LJ
0.5 LW
N
193.709 58.805 M
197.097 76.402 L
199.876 98.041 L
200.177 102.735 L
201.316 119.68 L
201.316 141.32 L
200.177 158.265 L
199.876 162.959 L
198.378 174.627 L
S
GR
GS
0.243 0.788 0.553 RC
1 LJ
0.5 LW
N
193.797 201.734 M
192.93 206.238 L
190.951 213.946 L
187.44 227.877 L
183.455 240.526 L
S
GR
GS
0.243 0.788 0.553 RC
1 LJ
0.5 LW
N
183.455 20.474 M
187.12 32.109 L
S
GR
GS
0.722 0.769 0.188 RC
1 LJ
0.5 LW
N
211.425 72.891 M
212.187 76.402 L
215.321 98.041 L
216.888 119.68 L
216.888 141.32 L
215.321 162.959 L
212.187 184.598 L
211.304 188.664 L
S
GR
GS
0.722 0.769 0.188 RC
1 LJ
0.5 LW
N
205.144 215.459 M
201.805 227.877 L
200.177 232.721 L
197.672 240.526 L
S
GR
GS
0.722 0.769 0.188 RC
1 LJ
0.5 LW
N
197.672 20.474 M
200.177 28.279 L
201.805 33.123 L
205.292 46.089 L
S
GR
GS
0.992 0.788 0.2 RC
1 LJ
0.5 LW
N
234.609 107.471 M
235.743 119.68 L
235.743 141.32 L
233.734 162.959 L
229.716 184.598 L
227.856 191.279 L
224.245 206.238 L
219.174 221.992 L
S
GR
GS
0.992 0.788 0.2 RC
1 LJ
0.5 LW
N
212.835 20.474 M
217.415 33.123 L
218.63 37.317 L
224.245 54.762 L
227.856 69.721 L
229.716 76.402 L
230.442 80.31 L
S
GR
GS
0.992 0.788 0.2 RC
1 LJ
0.5 LW
N
325.528 174.064 M
323.466 162.959 L
321.457 141.32 L
321.457 119.68 L
323.466 98.041 L
325.528 86.936 L
S
GR
GS
0.976 0.98 0.078 RC
1 LJ
0.5 LW
N
271.432 113.714 M
273.986 119.68 L
273.986 141.32 L
264.761 162.871 L
264.742 162.959 L
255.534 184.258 L
255.435 184.598 L
246.308 205.365 L
246.014 206.238 L
237.082 226.089 L
236.418 227.877 L
230.547 240.526 L
S
GR
GS
0.976 0.98 0.078 RC
1 LJ
0.5 LW
N
230.547 20.474 M
236.418 33.123 L
237.082 34.911 L
246.014 54.762 L
246.308 55.635 L
255.435 76.402 L
255.534 76.742 L
264.742 98.041 L
264.761 98.129 L
267.102 103.599 L
S
GR
GS
0.976 0.98 0.078 RC
1 LJ
0.5 LW
N
283.214 138.052 M
283.214 119.68 L
292.439 98.129 L
292.458 98.041 L
301.666 76.742 L
301.765 76.402 L
310.892 55.635 L
311.186 54.762 L
320.118 34.911 L
320.782 33.123 L
325.528 22.898 L
S
GR
GS
0.976 0.98 0.078 RC
1 LJ
0.5 LW
N
325.528 238.102 M
320.782 227.877 L
320.118 226.089 L
311.186 206.238 L
310.892 205.365 L
301.765 184.598 L
301.666 184.258 L
292.458 162.959 L
292.439 162.871 L
286.258 148.431 L
S
GR
GS
[0.05977 0.99821 -0.99821 0.05977 128.49303 123.2429] CT
/Helvetica 10 F
GS
[1 0 0 1 0 0] CT
-12 3.5 moveto 
1 -1 scale
(-0.73) t 
GR
GR
GS
[0.12859 -0.9917 0.9917 0.12859 98.56697 103.33764] CT
/Helvetica 10 F
GS
[1 0 0 1 0 0] CT
-9 3.5 moveto 
1 -1 scale
(-0.7) t 
GR
GR
GS
[0.10516 -0.99446 0.99446 0.10516 136.8235 151.80807] CT
/Helvetica 10 F
GS
[1 0 0 1 0 0] CT
-9 3.5 moveto 
1 -1 scale
(-0.7) t 
GR
GR
GS
[0.08119 0.9967 -0.9967 0.08119 171.74985 105.33155] CT
/Helvetica 10 F
GS
[1 0 0 1 0 0] CT
-9 3.5 moveto 
1 -1 scale
(-0.5) t 
GR
GR
GS
[0.2394 0.97092 -0.97092 0.2394 190.47771 45.4423] CT
/Helvetica 10 F
GS
[1 0 0 1 0 0] CT
-9 3.5 moveto 
1 -1 scale
(-0.3) t 
GR
GR
GS
[0.16646 -0.98605 0.98605 0.16646 196.24284 188.20502] CT
/Helvetica 10 F
GS
[1 0 0 1 0 0] CT
-9 3.5 moveto 
1 -1 scale
(-0.3) t 
GR
GR
GS
[0.22287 0.97485 -0.97485 0.22287 208.4626 59.46436] CT
/Helvetica 10 F
GS
[1 0 0 1 0 0] CT
-9 3.5 moveto 
1 -1 scale
(-0.2) t 
GR
GR
GS
[0.22385 -0.97462 0.97462 0.22385 208.33963 202.08908] CT
/Helvetica 10 F
GS
[1 0 0 1 0 0] CT
-9 3.5 moveto 
1 -1 scale
(-0.2) t 
GR
GR
GS
[0.15153 0.98845 -0.98845 0.15153 232.73889 93.86095] CT
/Helvetica 10 F
GS
[1 0 0 1 0 0] CT
-9 3.5 moveto 
1 -1 scale
(-0.1) t 
GR
GR
GS
[0.32818 -0.94461 0.94461 0.32818 214.74098 235.00542] CT
/Helvetica 10 F
GS
[1 0 0 1 0 0] CT
-9 3.5 moveto 
1 -1 scale
(-0.1) t 
GR
GR
GS
[0.39324 0.91943 -0.91943 0.39324 269.26733 108.65672] CT
/Helvetica 10 F
GS
[1 0 0 1 0 0] CT
-3 3.5 moveto 
1 -1 scale
(0) t 
GR
GR
GS
[0.28122 0.95964 -0.95964 0.28122 284.41412 143.30725] CT
/Helvetica 10 F
GS
[1 0 0 1 0 0] CT
-3 3.5 moveto 
1 -1 scale
(0) t 
GR
GR
GS
[1 0 0 1 278.60001 233.89999] CT
/Helvetica 10 F
GS
[1 0 0 1 0 0] CT
0 3.5 moveto 
1 -1 scale
(\(-0.01,-0.45\)) t 
GR
GR
GS
[1 0 0 1 245.77 104.1] CT
/Helvetica 10 F
GS
[1 0 0 1 0 0] CT
0 3.5 moveto 
1 -1 scale
(\(-0.35,0.07\)) t 
GR
GR
GS
1 GC
N
318 57.5 M
318 28 L
250 28 L
250 57.5 L
cp
f
GR
GS
[1 0 0 1 287 36.25] CT
/Times-Roman 10.8 F
GS
[1 0 0 1 0 0] CT
0 3.5 moveto 
1 -1 scale
(path 1) t 
GR
GR
GS
0 0.447 0.741 RC
1 LJ
0.5 LW
N
254 36.25 M
284 36.25 L
S
GR
GS
[1 0 0 1 269 36.25] CT
0 0.447 0.741 RC
10.0 ML
N
3 0 M
3 -1.657 1.657 -3 0 -3 C
-1.657 -3 -3 -1.657 -3 0 C
-3 1.657 -1.657 3 0 3 C
1.657 3 3 1.657 3 0 C
cp
S
GR
GS
[1 0 0 1 287 49.25] CT
/Times-Roman 10.8 F
GS
[1 0 0 1 0 0] CT
0 3.5 moveto 
1 -1 scale
(path 2) t 
GR
GR
GS
0.851 0.325 0.098 RC
1 LJ
0.5 LW
N
254 49.25 M
284 49.25 L
S
GR
GS
[1 0 0 1 269 49.25] CT
0.851 0.325 0.098 RC
10.0 ML
N
-2 -2 M
-2 2 L
2 2 L
2 -2 L
cp
S
GR
GS
0.149 GC
10.0 ML
0.5 LW
N
250 57.5 M
250 28 L
318 28 L
318 57.5 L
cp
S
GR
GS
1 GC
N
399 240.5 M
633.5 240.5 L
633.5 20.5 L
399 20.5 L
cp
f
GR
GS
[1 0 0 1 516.25049 18.85] CT
/Times-Bold 13.2 F
GS
[1 0 0 1 0 0] CT
-38 -3 moveto 
1 -1 scale
(descent value) t 
GR
GR
GS
0.149 GC
1 LJ
0.5 LW
N
633.5 240.5 M
399 240.5 L
S
GR
GS
0 0.447 0.741 RC
N
620.004 240.5 M
620.004 45.8 L
606.507 45.8 L
606.507 240.5 L
cp
560.957 240.5 M
560.957 205.85 L
547.46 205.85 L
547.46 240.5 L
cp
501.91 240.5 M
501.91 208.6 L
488.414 208.6 L
488.414 240.5 L
cp
442.863 240.5 M
442.863 226.75 L
429.367 226.75 L
429.367 240.5 L
cp
f
GR
GS
10.0 ML
0.5 LW
N
620.004 240.5 M
620.004 45.8 L
606.507 45.8 L
606.507 240.5 L
cp
S
GR
GS
10.0 ML
0.5 LW
N
560.957 240.5 M
560.957 205.85 L
547.46 205.85 L
547.46 240.5 L
cp
S
GR
GS
10.0 ML
0.5 LW
N
501.91 240.5 M
501.91 208.6 L
488.414 208.6 L
488.414 240.5 L
cp
S
GR
GS
10.0 ML
0.5 LW
N
442.863 240.5 M
442.863 226.75 L
429.367 226.75 L
429.367 240.5 L
cp
S
GR
GS
0.851 0.325 0.098 RC
N
603.133 240.5 M
603.133 57.9 L
589.637 57.9 L
589.637 240.5 L
cp
544.086 240.5 M
544.086 196.775 L
530.59 196.775 L
530.59 240.5 L
cp
485.04 240.5 M
485.04 192.925 L
471.543 192.925 L
471.543 240.5 L
cp
425.993 240.5 M
425.993 239.4 L
412.496 239.4 L
412.496 240.5 L
cp
f
GR
GS
10.0 ML
0.5 LW
N
603.133 240.5 M
603.133 57.9 L
589.637 57.9 L
589.637 240.5 L
cp
S
GR
GS
10.0 ML
0.5 LW
N
544.086 240.5 M
544.086 196.775 L
530.59 196.775 L
530.59 240.5 L
cp
S
GR
GS
10.0 ML
0.5 LW
N
485.04 240.5 M
485.04 192.925 L
471.543 192.925 L
471.543 240.5 L
cp
S
GR
GS
10.0 ML
0.5 LW
N
425.993 240.5 M
425.993 239.4 L
412.496 239.4 L
412.496 240.5 L
cp
S
GR
GS
0.149 GC
2 setlinecap
1 LJ
0.5 LW
N
633.5 240.5 M
399 240.5 L
S
GR
GS
0.149 GC
2 setlinecap
1 LJ
0.5 LW
N
633.5 20.5 M
399 20.5 L
S
GR
GS
0.149 GC
2 setlinecap
1 LJ
0.5 LW
N
604.82 240.5 M
604.82 238.155 L
S
GR
GS
0.149 GC
2 setlinecap
1 LJ
0.5 LW
N
545.773 240.5 M
545.773 238.155 L
S
GR
GS
0.149 GC
2 setlinecap
1 LJ
0.5 LW
N
486.727 240.5 M
486.727 238.155 L
S
GR
GS
0.149 GC
2 setlinecap
1 LJ
0.5 LW
N
427.68 240.5 M
427.68 238.155 L
S
GR
GS
0.149 GC
2 setlinecap
1 LJ
0.5 LW
N
604.82 20.5 M
604.82 22.845 L
S
GR
GS
0.149 GC
2 setlinecap
1 LJ
0.5 LW
N
545.773 20.5 M
545.773 22.845 L
S
GR
GS
0.149 GC
2 setlinecap
1 LJ
0.5 LW
N
486.727 20.5 M
486.727 22.845 L
S
GR
GS
0.149 GC
2 setlinecap
1 LJ
0.5 LW
N
427.68 20.5 M
427.68 22.845 L
S
GR
GS
[1 0 0 1 604.82013 244.89999] CT
0.149 GC
/Times-Roman 12 F
GS
[1 0 0 1 0 0] CT
-27.5 11 moveto 
1 -1 scale
(\(-0.75,-0.5]) t 
GR
GR
GS
[1 0 0 1 545.77338 244.89999] CT
0.149 GC
/Times-Roman 12 F
GS
[1 0 0 1 0 0] CT
-27.5 11 moveto 
1 -1 scale
(\(-0.5,-0.25]) t 
GR
GR
GS
[1 0 0 1 486.72662 244.89999] CT
0.149 GC
/Times-Roman 12 F
GS
[1 0 0 1 0 0] CT
-21 11 moveto 
1 -1 scale
(\(-0.25,0]) t 
GR
GR
GS
[1 0 0 1 427.67987 244.89999] CT
0.149 GC
/Times-Roman 12 F
GS
[1 0 0 1 0 0] CT
-6.5 11 moveto 
1 -1 scale
(>0) t 
GR
GR
GS
[1 0 0 1 516.25012 259.89999] CT
0.149 GC
/Times-Roman 13.2 F
GS
[1 0 0 1 0 0] CT
-39.5 12 moveto 
1 -1 scale
(Function value) t 
GR
GR
GS
0.149 GC
2 setlinecap
1 LJ
0.5 LW
N
399 240.5 M
399 20.5 L
S
GR
GS
0.149 GC
2 setlinecap
1 LJ
0.5 LW
N
633.5 240.5 M
633.5 20.5 L
S
GR
GS
0.149 GC
2 setlinecap
1 LJ
0.5 LW
N
399 240.5 M
401.345 240.5 L
S
GR
GS
0.149 GC
2 setlinecap
1 LJ
0.5 LW
N
399 213 M
401.345 213 L
S
GR
GS
0.149 GC
2 setlinecap
1 LJ
0.5 LW
N
399 185.5 M
401.345 185.5 L
S
GR
GS
0.149 GC
2 setlinecap
1 LJ
0.5 LW
N
399 158 M
401.345 158 L
S
GR
GS
0.149 GC
2 setlinecap
1 LJ
0.5 LW
N
399 130.5 M
401.345 130.5 L
S
GR
GS
0.149 GC
2 setlinecap
1 LJ
0.5 LW
N
399 103 M
401.345 103 L
S
GR
GS
0.149 GC
2 setlinecap
1 LJ
0.5 LW
N
399 75.5 M
401.345 75.5 L
S
GR
GS
0.149 GC
2 setlinecap
1 LJ
0.5 LW
N
399 48 M
401.345 48 L
S
GR
GS
0.149 GC
2 setlinecap
1 LJ
0.5 LW
N
399 20.5 M
401.345 20.5 L
S
GR
GS
0.149 GC
2 setlinecap
1 LJ
0.5 LW
N
633.5 240.5 M
631.155 240.5 L
S
GR
GS
0.149 GC
2 setlinecap
1 LJ
0.5 LW
N
633.5 213 M
631.155 213 L
S
GR
GS
0.149 GC
2 setlinecap
1 LJ
0.5 LW
N
633.5 185.5 M
631.155 185.5 L
S
GR
GS
0.149 GC
2 setlinecap
1 LJ
0.5 LW
N
633.5 158 M
631.155 158 L
S
GR
GS
0.149 GC
2 setlinecap
1 LJ
0.5 LW
N
633.5 130.5 M
631.155 130.5 L
S
GR
GS
0.149 GC
2 setlinecap
1 LJ
0.5 LW
N
633.5 103 M
631.155 103 L
S
GR
GS
0.149 GC
2 setlinecap
1 LJ
0.5 LW
N
633.5 75.5 M
631.155 75.5 L
S
GR
GS
0.149 GC
2 setlinecap
1 LJ
0.5 LW
N
633.5 48 M
631.155 48 L
S
GR
GS
0.149 GC
2 setlinecap
1 LJ
0.5 LW
N
633.5 20.5 M
631.155 20.5 L
S
GR
GS
[1 0 0 1 394.60001 240.5] CT
0.149 GC
/Times-Roman 12 F
GS
[1 0 0 1 0 0] CT
-6 4 moveto 
1 -1 scale
(0) t 
GR
GR
GS
[1 0 0 1 394.60001 213] CT
0.149 GC
/Times-Roman 12 F
GS
[1 0 0 1 0 0] CT
-18 4 moveto 
1 -1 scale
(100) t 
GR
GR
GS
[1 0 0 1 394.60001 185.5] CT
0.149 GC
/Times-Roman 12 F
GS
[1 0 0 1 0 0] CT
-18 4 moveto 
1 -1 scale
(200) t 
GR
GR
GS
[1 0 0 1 394.60001 158] CT
0.149 GC
/Times-Roman 12 F
GS
[1 0 0 1 0 0] CT
-18 4 moveto 
1 -1 scale
(300) t 
GR
GR
GS
[1 0 0 1 394.60001 130.5] CT
0.149 GC
/Times-Roman 12 F
GS
[1 0 0 1 0 0] CT
-18 4 moveto 
1 -1 scale
(400) t 
GR
GR
GS
[1 0 0 1 394.60001 103] CT
0.149 GC
/Times-Roman 12 F
GS
[1 0 0 1 0 0] CT
-18 4 moveto 
1 -1 scale
(500) t 
GR
GR
GS
[1 0 0 1 394.60001 75.5] CT
0.149 GC
/Times-Roman 12 F
GS
[1 0 0 1 0 0] CT
-18 4 moveto 
1 -1 scale
(600) t 
GR
GR
GS
[1 0 0 1 394.60001 48] CT
0.149 GC
/Times-Roman 12 F
GS
[1 0 0 1 0 0] CT
-18 4 moveto 
1 -1 scale
(700) t 
GR
GR
GS
[1 0 0 1 394.60001 20.5] CT
0.149 GC
/Times-Roman 12 F
GS
[1 0 0 1 0 0] CT
-18 4 moveto 
1 -1 scale
(800) t 
GR
GR
GS
[0 -1 1 0 373.60001 130.49989] CT
0.149 GC
/Times-Roman 13.2 F
GS
[1 0 0 1 0 0] CT
-28 -3 moveto 
1 -1 scale
(Frequency) t 
GR
GR
GS
1 GC
N
530.5 57.5 M
530.5 28 L
406.5 28 L
406.5 57.5 L
cp
f
GR
GS
[1 0 0 1 443.5 36.25] CT
/Times-Roman 10.8 F
GS
[1 0 0 1 0 0] CT
0 3.5 moveto 
1 -1 scale
(PGD+QSimulation) t 
GR
GR
GS
0 0.447 0.741 RC
N
440.5 40.938 M
440.5 31.563 L
410.5 31.563 L
410.5 40.938 L
cp
f
GR
GS
10.0 ML
0.5 LW
N
410.5 40.938 M
410.5 31.563 L
440.5 31.563 L
440.5 40.938 L
cp
S
GR
GS
[1 0 0 1 443.5 49.25] CT
/Times-Roman 10.8 F
GS
[1 0 0 1 0 0] CT
0 3.5 moveto 
1 -1 scale
(PGD) t 
GR
GR
GS
0.851 0.325 0.098 RC
N
440.5 53.938 M
440.5 44.563 L
410.5 44.563 L
410.5 53.938 L
cp
f
GR
GS
10.0 ML
0.5 LW
N
410.5 53.938 M
410.5 44.563 L
440.5 44.563 L
440.5 53.938 L
cp
S
GR
GS
0.149 GC
10.0 ML
0.5 LW
N
406.5 57.5 M
406.5 28 L
530.5 28 L
530.5 57.5 L
cp
S
GR
%%Trailer
%%Pages: 1
%%EOF
